(kicad_sch (version 20211123) (generator eeschema)

  (uuid e63e39d7-6ac0-4ffd-8aa3-1841a4541b55)

  (paper "A4")

  (title_block
    (title "IKEA Hårte: Dimmer Box")
    (date "2022-03-11")
    (rev "1")
    (company "Wizzard.Industries")
  )

  (lib_symbols
    (symbol "Connector:Conn_01x02_Male" (pin_names (offset 1.016) hide) (in_bom yes) (on_board yes)
      (property "Reference" "J" (id 0) (at 0 2.54 0)
        (effects (font (size 1.27 1.27)))
      )
      (property "Value" "Conn_01x02_Male" (id 1) (at 0 -5.08 0)
        (effects (font (size 1.27 1.27)))
      )
      (property "Footprint" "" (id 2) (at 0 0 0)
        (effects (font (size 1.27 1.27)) hide)
      )
      (property "Datasheet" "~" (id 3) (at 0 0 0)
        (effects (font (size 1.27 1.27)) hide)
      )
      (property "ki_keywords" "connector" (id 4) (at 0 0 0)
        (effects (font (size 1.27 1.27)) hide)
      )
      (property "ki_description" "Generic connector, single row, 01x02, script generated (kicad-library-utils/schlib/autogen/connector/)" (id 5) (at 0 0 0)
        (effects (font (size 1.27 1.27)) hide)
      )
      (property "ki_fp_filters" "Connector*:*_1x??_*" (id 6) (at 0 0 0)
        (effects (font (size 1.27 1.27)) hide)
      )
      (symbol "Conn_01x02_Male_1_1"
        (polyline
          (pts
            (xy 1.27 -2.54)
            (xy 0.8636 -2.54)
          )
          (stroke (width 0.1524) (type default) (color 0 0 0 0))
          (fill (type none))
        )
        (polyline
          (pts
            (xy 1.27 0)
            (xy 0.8636 0)
          )
          (stroke (width 0.1524) (type default) (color 0 0 0 0))
          (fill (type none))
        )
        (rectangle (start 0.8636 -2.413) (end 0 -2.667)
          (stroke (width 0.1524) (type default) (color 0 0 0 0))
          (fill (type outline))
        )
        (rectangle (start 0.8636 0.127) (end 0 -0.127)
          (stroke (width 0.1524) (type default) (color 0 0 0 0))
          (fill (type outline))
        )
        (pin passive line (at 5.08 0 180) (length 3.81)
          (name "Pin_1" (effects (font (size 1.27 1.27))))
          (number "1" (effects (font (size 1.27 1.27))))
        )
        (pin passive line (at 5.08 -2.54 180) (length 3.81)
          (name "Pin_2" (effects (font (size 1.27 1.27))))
          (number "2" (effects (font (size 1.27 1.27))))
        )
      )
    )
    (symbol "Connector:Conn_01x03_Male" (pin_names (offset 1.016) hide) (in_bom yes) (on_board yes)
      (property "Reference" "J" (id 0) (at 0 5.08 0)
        (effects (font (size 1.27 1.27)))
      )
      (property "Value" "Conn_01x03_Male" (id 1) (at 0 -5.08 0)
        (effects (font (size 1.27 1.27)))
      )
      (property "Footprint" "" (id 2) (at 0 0 0)
        (effects (font (size 1.27 1.27)) hide)
      )
      (property "Datasheet" "~" (id 3) (at 0 0 0)
        (effects (font (size 1.27 1.27)) hide)
      )
      (property "ki_keywords" "connector" (id 4) (at 0 0 0)
        (effects (font (size 1.27 1.27)) hide)
      )
      (property "ki_description" "Generic connector, single row, 01x03, script generated (kicad-library-utils/schlib/autogen/connector/)" (id 5) (at 0 0 0)
        (effects (font (size 1.27 1.27)) hide)
      )
      (property "ki_fp_filters" "Connector*:*_1x??_*" (id 6) (at 0 0 0)
        (effects (font (size 1.27 1.27)) hide)
      )
      (symbol "Conn_01x03_Male_1_1"
        (polyline
          (pts
            (xy 1.27 -2.54)
            (xy 0.8636 -2.54)
          )
          (stroke (width 0.1524) (type default) (color 0 0 0 0))
          (fill (type none))
        )
        (polyline
          (pts
            (xy 1.27 0)
            (xy 0.8636 0)
          )
          (stroke (width 0.1524) (type default) (color 0 0 0 0))
          (fill (type none))
        )
        (polyline
          (pts
            (xy 1.27 2.54)
            (xy 0.8636 2.54)
          )
          (stroke (width 0.1524) (type default) (color 0 0 0 0))
          (fill (type none))
        )
        (rectangle (start 0.8636 -2.413) (end 0 -2.667)
          (stroke (width 0.1524) (type default) (color 0 0 0 0))
          (fill (type outline))
        )
        (rectangle (start 0.8636 0.127) (end 0 -0.127)
          (stroke (width 0.1524) (type default) (color 0 0 0 0))
          (fill (type outline))
        )
        (rectangle (start 0.8636 2.667) (end 0 2.413)
          (stroke (width 0.1524) (type default) (color 0 0 0 0))
          (fill (type outline))
        )
        (pin passive line (at 5.08 2.54 180) (length 3.81)
          (name "Pin_1" (effects (font (size 1.27 1.27))))
          (number "1" (effects (font (size 1.27 1.27))))
        )
        (pin passive line (at 5.08 0 180) (length 3.81)
          (name "Pin_2" (effects (font (size 1.27 1.27))))
          (number "2" (effects (font (size 1.27 1.27))))
        )
        (pin passive line (at 5.08 -2.54 180) (length 3.81)
          (name "Pin_3" (effects (font (size 1.27 1.27))))
          (number "3" (effects (font (size 1.27 1.27))))
        )
      )
    )
    (symbol "Connector_Generic:Conn_01x02" (pin_names (offset 1.016) hide) (in_bom yes) (on_board yes)
      (property "Reference" "J" (id 0) (at 0 2.54 0)
        (effects (font (size 1.27 1.27)))
      )
      (property "Value" "Conn_01x02" (id 1) (at 0 -5.08 0)
        (effects (font (size 1.27 1.27)))
      )
      (property "Footprint" "" (id 2) (at 0 0 0)
        (effects (font (size 1.27 1.27)) hide)
      )
      (property "Datasheet" "~" (id 3) (at 0 0 0)
        (effects (font (size 1.27 1.27)) hide)
      )
      (property "ki_keywords" "connector" (id 4) (at 0 0 0)
        (effects (font (size 1.27 1.27)) hide)
      )
      (property "ki_description" "Generic connector, single row, 01x02, script generated (kicad-library-utils/schlib/autogen/connector/)" (id 5) (at 0 0 0)
        (effects (font (size 1.27 1.27)) hide)
      )
      (property "ki_fp_filters" "Connector*:*_1x??_*" (id 6) (at 0 0 0)
        (effects (font (size 1.27 1.27)) hide)
      )
      (symbol "Conn_01x02_1_1"
        (rectangle (start -1.27 -2.413) (end 0 -2.667)
          (stroke (width 0.1524) (type default) (color 0 0 0 0))
          (fill (type none))
        )
        (rectangle (start -1.27 0.127) (end 0 -0.127)
          (stroke (width 0.1524) (type default) (color 0 0 0 0))
          (fill (type none))
        )
        (rectangle (start -1.27 1.27) (end 1.27 -3.81)
          (stroke (width 0.254) (type default) (color 0 0 0 0))
          (fill (type background))
        )
        (pin passive line (at -5.08 0 0) (length 3.81)
          (name "Pin_1" (effects (font (size 1.27 1.27))))
          (number "1" (effects (font (size 1.27 1.27))))
        )
        (pin passive line (at -5.08 -2.54 0) (length 3.81)
          (name "Pin_2" (effects (font (size 1.27 1.27))))
          (number "2" (effects (font (size 1.27 1.27))))
        )
      )
    )
    (symbol "Device:C_Polarized_Small" (pin_numbers hide) (pin_names (offset 0.254) hide) (in_bom yes) (on_board yes)
      (property "Reference" "C" (id 0) (at 0.254 1.778 0)
        (effects (font (size 1.27 1.27)) (justify left))
      )
      (property "Value" "C_Polarized_Small" (id 1) (at 0.254 -2.032 0)
        (effects (font (size 1.27 1.27)) (justify left))
      )
      (property "Footprint" "" (id 2) (at 0 0 0)
        (effects (font (size 1.27 1.27)) hide)
      )
      (property "Datasheet" "~" (id 3) (at 0 0 0)
        (effects (font (size 1.27 1.27)) hide)
      )
      (property "ki_keywords" "cap capacitor" (id 4) (at 0 0 0)
        (effects (font (size 1.27 1.27)) hide)
      )
      (property "ki_description" "Polarized capacitor, small symbol" (id 5) (at 0 0 0)
        (effects (font (size 1.27 1.27)) hide)
      )
      (property "ki_fp_filters" "CP_*" (id 6) (at 0 0 0)
        (effects (font (size 1.27 1.27)) hide)
      )
      (symbol "C_Polarized_Small_0_1"
        (rectangle (start -1.524 -0.3048) (end 1.524 -0.6858)
          (stroke (width 0) (type default) (color 0 0 0 0))
          (fill (type outline))
        )
        (rectangle (start -1.524 0.6858) (end 1.524 0.3048)
          (stroke (width 0) (type default) (color 0 0 0 0))
          (fill (type none))
        )
        (polyline
          (pts
            (xy -1.27 1.524)
            (xy -0.762 1.524)
          )
          (stroke (width 0) (type default) (color 0 0 0 0))
          (fill (type none))
        )
        (polyline
          (pts
            (xy -1.016 1.27)
            (xy -1.016 1.778)
          )
          (stroke (width 0) (type default) (color 0 0 0 0))
          (fill (type none))
        )
      )
      (symbol "C_Polarized_Small_1_1"
        (pin passive line (at 0 2.54 270) (length 1.8542)
          (name "~" (effects (font (size 1.27 1.27))))
          (number "1" (effects (font (size 1.27 1.27))))
        )
        (pin passive line (at 0 -2.54 90) (length 1.8542)
          (name "~" (effects (font (size 1.27 1.27))))
          (number "2" (effects (font (size 1.27 1.27))))
        )
      )
    )
    (symbol "Device:C_Small" (pin_numbers hide) (pin_names (offset 0.254) hide) (in_bom yes) (on_board yes)
      (property "Reference" "C" (id 0) (at 0.254 1.778 0)
        (effects (font (size 1.27 1.27)) (justify left))
      )
      (property "Value" "C_Small" (id 1) (at 0.254 -2.032 0)
        (effects (font (size 1.27 1.27)) (justify left))
      )
      (property "Footprint" "" (id 2) (at 0 0 0)
        (effects (font (size 1.27 1.27)) hide)
      )
      (property "Datasheet" "~" (id 3) (at 0 0 0)
        (effects (font (size 1.27 1.27)) hide)
      )
      (property "ki_keywords" "capacitor cap" (id 4) (at 0 0 0)
        (effects (font (size 1.27 1.27)) hide)
      )
      (property "ki_description" "Unpolarized capacitor, small symbol" (id 5) (at 0 0 0)
        (effects (font (size 1.27 1.27)) hide)
      )
      (property "ki_fp_filters" "C_*" (id 6) (at 0 0 0)
        (effects (font (size 1.27 1.27)) hide)
      )
      (symbol "C_Small_0_1"
        (polyline
          (pts
            (xy -1.524 -0.508)
            (xy 1.524 -0.508)
          )
          (stroke (width 0.3302) (type default) (color 0 0 0 0))
          (fill (type none))
        )
        (polyline
          (pts
            (xy -1.524 0.508)
            (xy 1.524 0.508)
          )
          (stroke (width 0.3048) (type default) (color 0 0 0 0))
          (fill (type none))
        )
      )
      (symbol "C_Small_1_1"
        (pin passive line (at 0 2.54 270) (length 2.032)
          (name "~" (effects (font (size 1.27 1.27))))
          (number "1" (effects (font (size 1.27 1.27))))
        )
        (pin passive line (at 0 -2.54 90) (length 2.032)
          (name "~" (effects (font (size 1.27 1.27))))
          (number "2" (effects (font (size 1.27 1.27))))
        )
      )
    )
    (symbol "Device:D_Zener" (pin_numbers hide) (pin_names (offset 1.016) hide) (in_bom yes) (on_board yes)
      (property "Reference" "D" (id 0) (at 0 2.54 0)
        (effects (font (size 1.27 1.27)))
      )
      (property "Value" "D_Zener" (id 1) (at 0 -2.54 0)
        (effects (font (size 1.27 1.27)))
      )
      (property "Footprint" "" (id 2) (at 0 0 0)
        (effects (font (size 1.27 1.27)) hide)
      )
      (property "Datasheet" "~" (id 3) (at 0 0 0)
        (effects (font (size 1.27 1.27)) hide)
      )
      (property "ki_keywords" "diode" (id 4) (at 0 0 0)
        (effects (font (size 1.27 1.27)) hide)
      )
      (property "ki_description" "Zener diode" (id 5) (at 0 0 0)
        (effects (font (size 1.27 1.27)) hide)
      )
      (property "ki_fp_filters" "TO-???* *_Diode_* *SingleDiode* D_*" (id 6) (at 0 0 0)
        (effects (font (size 1.27 1.27)) hide)
      )
      (symbol "D_Zener_0_1"
        (polyline
          (pts
            (xy 1.27 0)
            (xy -1.27 0)
          )
          (stroke (width 0) (type default) (color 0 0 0 0))
          (fill (type none))
        )
        (polyline
          (pts
            (xy -1.27 -1.27)
            (xy -1.27 1.27)
            (xy -0.762 1.27)
          )
          (stroke (width 0.254) (type default) (color 0 0 0 0))
          (fill (type none))
        )
        (polyline
          (pts
            (xy 1.27 -1.27)
            (xy 1.27 1.27)
            (xy -1.27 0)
            (xy 1.27 -1.27)
          )
          (stroke (width 0.254) (type default) (color 0 0 0 0))
          (fill (type none))
        )
      )
      (symbol "D_Zener_1_1"
        (pin passive line (at -3.81 0 0) (length 2.54)
          (name "K" (effects (font (size 1.27 1.27))))
          (number "1" (effects (font (size 1.27 1.27))))
        )
        (pin passive line (at 3.81 0 180) (length 2.54)
          (name "A" (effects (font (size 1.27 1.27))))
          (number "2" (effects (font (size 1.27 1.27))))
        )
      )
    )
    (symbol "Device:LED" (pin_numbers hide) (pin_names (offset 1.016) hide) (in_bom yes) (on_board yes)
      (property "Reference" "D" (id 0) (at 0 2.54 0)
        (effects (font (size 1.27 1.27)))
      )
      (property "Value" "LED" (id 1) (at 0 -2.54 0)
        (effects (font (size 1.27 1.27)))
      )
      (property "Footprint" "" (id 2) (at 0 0 0)
        (effects (font (size 1.27 1.27)) hide)
      )
      (property "Datasheet" "~" (id 3) (at 0 0 0)
        (effects (font (size 1.27 1.27)) hide)
      )
      (property "ki_keywords" "LED diode" (id 4) (at 0 0 0)
        (effects (font (size 1.27 1.27)) hide)
      )
      (property "ki_description" "Light emitting diode" (id 5) (at 0 0 0)
        (effects (font (size 1.27 1.27)) hide)
      )
      (property "ki_fp_filters" "LED* LED_SMD:* LED_THT:*" (id 6) (at 0 0 0)
        (effects (font (size 1.27 1.27)) hide)
      )
      (symbol "LED_0_1"
        (polyline
          (pts
            (xy -1.27 -1.27)
            (xy -1.27 1.27)
          )
          (stroke (width 0.254) (type default) (color 0 0 0 0))
          (fill (type none))
        )
        (polyline
          (pts
            (xy -1.27 0)
            (xy 1.27 0)
          )
          (stroke (width 0) (type default) (color 0 0 0 0))
          (fill (type none))
        )
        (polyline
          (pts
            (xy 1.27 -1.27)
            (xy 1.27 1.27)
            (xy -1.27 0)
            (xy 1.27 -1.27)
          )
          (stroke (width 0.254) (type default) (color 0 0 0 0))
          (fill (type none))
        )
        (polyline
          (pts
            (xy -3.048 -0.762)
            (xy -4.572 -2.286)
            (xy -3.81 -2.286)
            (xy -4.572 -2.286)
            (xy -4.572 -1.524)
          )
          (stroke (width 0) (type default) (color 0 0 0 0))
          (fill (type none))
        )
        (polyline
          (pts
            (xy -1.778 -0.762)
            (xy -3.302 -2.286)
            (xy -2.54 -2.286)
            (xy -3.302 -2.286)
            (xy -3.302 -1.524)
          )
          (stroke (width 0) (type default) (color 0 0 0 0))
          (fill (type none))
        )
      )
      (symbol "LED_1_1"
        (pin passive line (at -3.81 0 0) (length 2.54)
          (name "K" (effects (font (size 1.27 1.27))))
          (number "1" (effects (font (size 1.27 1.27))))
        )
        (pin passive line (at 3.81 0 180) (length 2.54)
          (name "A" (effects (font (size 1.27 1.27))))
          (number "2" (effects (font (size 1.27 1.27))))
        )
      )
    )
    (symbol "Device:Q_NMOS_GDS" (pin_names (offset 0) hide) (in_bom yes) (on_board yes)
      (property "Reference" "Q" (id 0) (at 5.08 1.27 0)
        (effects (font (size 1.27 1.27)) (justify left))
      )
      (property "Value" "Q_NMOS_GDS" (id 1) (at 5.08 -1.27 0)
        (effects (font (size 1.27 1.27)) (justify left))
      )
      (property "Footprint" "" (id 2) (at 5.08 2.54 0)
        (effects (font (size 1.27 1.27)) hide)
      )
      (property "Datasheet" "~" (id 3) (at 0 0 0)
        (effects (font (size 1.27 1.27)) hide)
      )
      (property "ki_keywords" "transistor NMOS N-MOS N-MOSFET" (id 4) (at 0 0 0)
        (effects (font (size 1.27 1.27)) hide)
      )
      (property "ki_description" "N-MOSFET transistor, gate/drain/source" (id 5) (at 0 0 0)
        (effects (font (size 1.27 1.27)) hide)
      )
      (symbol "Q_NMOS_GDS_0_1"
        (polyline
          (pts
            (xy 0.254 0)
            (xy -2.54 0)
          )
          (stroke (width 0) (type default) (color 0 0 0 0))
          (fill (type none))
        )
        (polyline
          (pts
            (xy 0.254 1.905)
            (xy 0.254 -1.905)
          )
          (stroke (width 0.254) (type default) (color 0 0 0 0))
          (fill (type none))
        )
        (polyline
          (pts
            (xy 0.762 -1.27)
            (xy 0.762 -2.286)
          )
          (stroke (width 0.254) (type default) (color 0 0 0 0))
          (fill (type none))
        )
        (polyline
          (pts
            (xy 0.762 0.508)
            (xy 0.762 -0.508)
          )
          (stroke (width 0.254) (type default) (color 0 0 0 0))
          (fill (type none))
        )
        (polyline
          (pts
            (xy 0.762 2.286)
            (xy 0.762 1.27)
          )
          (stroke (width 0.254) (type default) (color 0 0 0 0))
          (fill (type none))
        )
        (polyline
          (pts
            (xy 2.54 2.54)
            (xy 2.54 1.778)
          )
          (stroke (width 0) (type default) (color 0 0 0 0))
          (fill (type none))
        )
        (polyline
          (pts
            (xy 2.54 -2.54)
            (xy 2.54 0)
            (xy 0.762 0)
          )
          (stroke (width 0) (type default) (color 0 0 0 0))
          (fill (type none))
        )
        (polyline
          (pts
            (xy 0.762 -1.778)
            (xy 3.302 -1.778)
            (xy 3.302 1.778)
            (xy 0.762 1.778)
          )
          (stroke (width 0) (type default) (color 0 0 0 0))
          (fill (type none))
        )
        (polyline
          (pts
            (xy 1.016 0)
            (xy 2.032 0.381)
            (xy 2.032 -0.381)
            (xy 1.016 0)
          )
          (stroke (width 0) (type default) (color 0 0 0 0))
          (fill (type outline))
        )
        (polyline
          (pts
            (xy 2.794 0.508)
            (xy 2.921 0.381)
            (xy 3.683 0.381)
            (xy 3.81 0.254)
          )
          (stroke (width 0) (type default) (color 0 0 0 0))
          (fill (type none))
        )
        (polyline
          (pts
            (xy 3.302 0.381)
            (xy 2.921 -0.254)
            (xy 3.683 -0.254)
            (xy 3.302 0.381)
          )
          (stroke (width 0) (type default) (color 0 0 0 0))
          (fill (type none))
        )
        (circle (center 1.651 0) (radius 2.794)
          (stroke (width 0.254) (type default) (color 0 0 0 0))
          (fill (type none))
        )
        (circle (center 2.54 -1.778) (radius 0.254)
          (stroke (width 0) (type default) (color 0 0 0 0))
          (fill (type outline))
        )
        (circle (center 2.54 1.778) (radius 0.254)
          (stroke (width 0) (type default) (color 0 0 0 0))
          (fill (type outline))
        )
      )
      (symbol "Q_NMOS_GDS_1_1"
        (pin input line (at -5.08 0 0) (length 2.54)
          (name "G" (effects (font (size 1.27 1.27))))
          (number "1" (effects (font (size 1.27 1.27))))
        )
        (pin passive line (at 2.54 5.08 270) (length 2.54)
          (name "D" (effects (font (size 1.27 1.27))))
          (number "2" (effects (font (size 1.27 1.27))))
        )
        (pin passive line (at 2.54 -5.08 90) (length 2.54)
          (name "S" (effects (font (size 1.27 1.27))))
          (number "3" (effects (font (size 1.27 1.27))))
        )
      )
    )
    (symbol "Device:R" (pin_numbers hide) (pin_names (offset 0)) (in_bom yes) (on_board yes)
      (property "Reference" "R" (id 0) (at 2.032 0 90)
        (effects (font (size 1.27 1.27)))
      )
      (property "Value" "R" (id 1) (at 0 0 90)
        (effects (font (size 1.27 1.27)))
      )
      (property "Footprint" "" (id 2) (at -1.778 0 90)
        (effects (font (size 1.27 1.27)) hide)
      )
      (property "Datasheet" "~" (id 3) (at 0 0 0)
        (effects (font (size 1.27 1.27)) hide)
      )
      (property "ki_keywords" "R res resistor" (id 4) (at 0 0 0)
        (effects (font (size 1.27 1.27)) hide)
      )
      (property "ki_description" "Resistor" (id 5) (at 0 0 0)
        (effects (font (size 1.27 1.27)) hide)
      )
      (property "ki_fp_filters" "R_*" (id 6) (at 0 0 0)
        (effects (font (size 1.27 1.27)) hide)
      )
      (symbol "R_0_1"
        (rectangle (start -1.016 -2.54) (end 1.016 2.54)
          (stroke (width 0.254) (type default) (color 0 0 0 0))
          (fill (type none))
        )
      )
      (symbol "R_1_1"
        (pin passive line (at 0 3.81 270) (length 1.27)
          (name "~" (effects (font (size 1.27 1.27))))
          (number "1" (effects (font (size 1.27 1.27))))
        )
        (pin passive line (at 0 -3.81 90) (length 1.27)
          (name "~" (effects (font (size 1.27 1.27))))
          (number "2" (effects (font (size 1.27 1.27))))
        )
      )
    )
    (symbol "Device:RotaryEncoder_Switch" (pin_names (offset 0.254) hide) (in_bom yes) (on_board yes)
      (property "Reference" "SW" (id 0) (at 0 6.604 0)
        (effects (font (size 1.27 1.27)))
      )
      (property "Value" "RotaryEncoder_Switch" (id 1) (at 0 -6.604 0)
        (effects (font (size 1.27 1.27)))
      )
      (property "Footprint" "" (id 2) (at -3.81 4.064 0)
        (effects (font (size 1.27 1.27)) hide)
      )
      (property "Datasheet" "~" (id 3) (at 0 6.604 0)
        (effects (font (size 1.27 1.27)) hide)
      )
      (property "ki_keywords" "rotary switch encoder switch push button" (id 4) (at 0 0 0)
        (effects (font (size 1.27 1.27)) hide)
      )
      (property "ki_description" "Rotary encoder, dual channel, incremental quadrate outputs, with switch" (id 5) (at 0 0 0)
        (effects (font (size 1.27 1.27)) hide)
      )
      (property "ki_fp_filters" "RotaryEncoder*Switch*" (id 6) (at 0 0 0)
        (effects (font (size 1.27 1.27)) hide)
      )
      (symbol "RotaryEncoder_Switch_0_1"
        (rectangle (start -5.08 5.08) (end 5.08 -5.08)
          (stroke (width 0.254) (type default) (color 0 0 0 0))
          (fill (type background))
        )
        (circle (center -3.81 0) (radius 0.254)
          (stroke (width 0) (type default) (color 0 0 0 0))
          (fill (type outline))
        )
        (arc (start -0.381 -2.794) (mid 2.3622 -0.0635) (end -0.381 2.667)
          (stroke (width 0.254) (type default) (color 0 0 0 0))
          (fill (type none))
        )
        (circle (center -0.381 0) (radius 1.905)
          (stroke (width 0.254) (type default) (color 0 0 0 0))
          (fill (type none))
        )
        (polyline
          (pts
            (xy -0.635 -1.778)
            (xy -0.635 1.778)
          )
          (stroke (width 0.254) (type default) (color 0 0 0 0))
          (fill (type none))
        )
        (polyline
          (pts
            (xy -0.381 -1.778)
            (xy -0.381 1.778)
          )
          (stroke (width 0.254) (type default) (color 0 0 0 0))
          (fill (type none))
        )
        (polyline
          (pts
            (xy -0.127 1.778)
            (xy -0.127 -1.778)
          )
          (stroke (width 0.254) (type default) (color 0 0 0 0))
          (fill (type none))
        )
        (polyline
          (pts
            (xy 3.81 0)
            (xy 3.429 0)
          )
          (stroke (width 0.254) (type default) (color 0 0 0 0))
          (fill (type none))
        )
        (polyline
          (pts
            (xy 3.81 1.016)
            (xy 3.81 -1.016)
          )
          (stroke (width 0.254) (type default) (color 0 0 0 0))
          (fill (type none))
        )
        (polyline
          (pts
            (xy -5.08 -2.54)
            (xy -3.81 -2.54)
            (xy -3.81 -2.032)
          )
          (stroke (width 0) (type default) (color 0 0 0 0))
          (fill (type none))
        )
        (polyline
          (pts
            (xy -5.08 2.54)
            (xy -3.81 2.54)
            (xy -3.81 2.032)
          )
          (stroke (width 0) (type default) (color 0 0 0 0))
          (fill (type none))
        )
        (polyline
          (pts
            (xy 0.254 -3.048)
            (xy -0.508 -2.794)
            (xy 0.127 -2.413)
          )
          (stroke (width 0.254) (type default) (color 0 0 0 0))
          (fill (type none))
        )
        (polyline
          (pts
            (xy 0.254 2.921)
            (xy -0.508 2.667)
            (xy 0.127 2.286)
          )
          (stroke (width 0.254) (type default) (color 0 0 0 0))
          (fill (type none))
        )
        (polyline
          (pts
            (xy 5.08 -2.54)
            (xy 4.318 -2.54)
            (xy 4.318 -1.016)
          )
          (stroke (width 0.254) (type default) (color 0 0 0 0))
          (fill (type none))
        )
        (polyline
          (pts
            (xy 5.08 2.54)
            (xy 4.318 2.54)
            (xy 4.318 1.016)
          )
          (stroke (width 0.254) (type default) (color 0 0 0 0))
          (fill (type none))
        )
        (polyline
          (pts
            (xy -5.08 0)
            (xy -3.81 0)
            (xy -3.81 -1.016)
            (xy -3.302 -2.032)
          )
          (stroke (width 0) (type default) (color 0 0 0 0))
          (fill (type none))
        )
        (polyline
          (pts
            (xy -4.318 0)
            (xy -3.81 0)
            (xy -3.81 1.016)
            (xy -3.302 2.032)
          )
          (stroke (width 0) (type default) (color 0 0 0 0))
          (fill (type none))
        )
        (circle (center 4.318 -1.016) (radius 0.127)
          (stroke (width 0.254) (type default) (color 0 0 0 0))
          (fill (type none))
        )
        (circle (center 4.318 1.016) (radius 0.127)
          (stroke (width 0.254) (type default) (color 0 0 0 0))
          (fill (type none))
        )
      )
      (symbol "RotaryEncoder_Switch_1_1"
        (pin passive line (at -7.62 2.54 0) (length 2.54)
          (name "A" (effects (font (size 1.27 1.27))))
          (number "A" (effects (font (size 1.27 1.27))))
        )
        (pin passive line (at -7.62 -2.54 0) (length 2.54)
          (name "B" (effects (font (size 1.27 1.27))))
          (number "B" (effects (font (size 1.27 1.27))))
        )
        (pin passive line (at -7.62 0 0) (length 2.54)
          (name "C" (effects (font (size 1.27 1.27))))
          (number "C" (effects (font (size 1.27 1.27))))
        )
        (pin passive line (at 7.62 2.54 180) (length 2.54)
          (name "S1" (effects (font (size 1.27 1.27))))
          (number "S1" (effects (font (size 1.27 1.27))))
        )
        (pin passive line (at 7.62 -2.54 180) (length 2.54)
          (name "S2" (effects (font (size 1.27 1.27))))
          (number "S2" (effects (font (size 1.27 1.27))))
        )
      )
    )
    (symbol "Diode:1N4001" (pin_numbers hide) (pin_names (offset 1.016) hide) (in_bom yes) (on_board yes)
      (property "Reference" "D" (id 0) (at 0 2.54 0)
        (effects (font (size 1.27 1.27)))
      )
      (property "Value" "1N4001" (id 1) (at 0 -2.54 0)
        (effects (font (size 1.27 1.27)))
      )
      (property "Footprint" "Diode_THT:D_DO-41_SOD81_P10.16mm_Horizontal" (id 2) (at 0 -4.445 0)
        (effects (font (size 1.27 1.27)) hide)
      )
      (property "Datasheet" "http://www.vishay.com/docs/88503/1n4001.pdf" (id 3) (at 0 0 0)
        (effects (font (size 1.27 1.27)) hide)
      )
      (property "ki_keywords" "diode" (id 4) (at 0 0 0)
        (effects (font (size 1.27 1.27)) hide)
      )
      (property "ki_description" "50V 1A General Purpose Rectifier Diode, DO-41" (id 5) (at 0 0 0)
        (effects (font (size 1.27 1.27)) hide)
      )
      (property "ki_fp_filters" "D*DO?41*" (id 6) (at 0 0 0)
        (effects (font (size 1.27 1.27)) hide)
      )
      (symbol "1N4001_0_1"
        (polyline
          (pts
            (xy -1.27 1.27)
            (xy -1.27 -1.27)
          )
          (stroke (width 0.254) (type default) (color 0 0 0 0))
          (fill (type none))
        )
        (polyline
          (pts
            (xy 1.27 0)
            (xy -1.27 0)
          )
          (stroke (width 0) (type default) (color 0 0 0 0))
          (fill (type none))
        )
        (polyline
          (pts
            (xy 1.27 1.27)
            (xy 1.27 -1.27)
            (xy -1.27 0)
            (xy 1.27 1.27)
          )
          (stroke (width 0.254) (type default) (color 0 0 0 0))
          (fill (type none))
        )
      )
      (symbol "1N4001_1_1"
        (pin passive line (at -3.81 0 0) (length 2.54)
          (name "K" (effects (font (size 1.27 1.27))))
          (number "1" (effects (font (size 1.27 1.27))))
        )
        (pin passive line (at 3.81 0 180) (length 2.54)
          (name "A" (effects (font (size 1.27 1.27))))
          (number "2" (effects (font (size 1.27 1.27))))
        )
      )
    )
    (symbol "Mechanical:MountingHole" (pin_names (offset 1.016)) (in_bom yes) (on_board yes)
      (property "Reference" "H" (id 0) (at 0 5.08 0)
        (effects (font (size 1.27 1.27)))
      )
      (property "Value" "MountingHole" (id 1) (at 0 3.175 0)
        (effects (font (size 1.27 1.27)))
      )
      (property "Footprint" "" (id 2) (at 0 0 0)
        (effects (font (size 1.27 1.27)) hide)
      )
      (property "Datasheet" "~" (id 3) (at 0 0 0)
        (effects (font (size 1.27 1.27)) hide)
      )
      (property "ki_keywords" "mounting hole" (id 4) (at 0 0 0)
        (effects (font (size 1.27 1.27)) hide)
      )
      (property "ki_description" "Mounting Hole without connection" (id 5) (at 0 0 0)
        (effects (font (size 1.27 1.27)) hide)
      )
      (property "ki_fp_filters" "MountingHole*" (id 6) (at 0 0 0)
        (effects (font (size 1.27 1.27)) hide)
      )
      (symbol "MountingHole_0_1"
        (circle (center 0 0) (radius 1.27)
          (stroke (width 1.27) (type default) (color 0 0 0 0))
          (fill (type none))
        )
      )
    )
    (symbol "Wizzard.Atmel:AtMega3208-XF-Functional" (in_bom yes) (on_board yes)
      (property "Reference" "U" (id 0) (at -15.24 26.67 0)
        (effects (font (size 1.27 1.27)) (justify left bottom))
      )
      (property "Value" "AtMega3208-XF-Functional" (id 1) (at 2.54 -26.67 0)
        (effects (font (size 1.27 1.27)) (justify left top))
      )
      (property "Footprint" "Wizzard.Atmel:AtMega3208-XF-SSOP28" (id 2) (at 0 0 0)
        (effects (font (size 1.27 1.27) italic) hide)
      )
      (property "Datasheet" "http://ww1.microchip.com/downloads/en/DeviceDoc/ATmega3208-3209-Data-Sheet-DS40002174A.pdf" (id 3) (at 0 0 0)
        (effects (font (size 1.27 1.27)) hide)
      )
      (property "Generator" "Chipper, generic Symbol" (id 4) (at 0 0 0)
        (effects (font (size 1.27 1.27)) hide)
      )
      (property "Author" "Konrad Rosenbaum" (id 5) (at 0 0 0)
        (effects (font (size 1.27 1.27)) hide)
      )
      (property "ChipFileCopyright" "(c) Konrad Rosenbaum, 2021" (id 6) (at 0 0 0)
        (effects (font (size 1.27 1.27)) hide)
      )
      (property "ChipFileLicense" "CC-BY-SA + KiCAD Exception" (id 7) (at 0 0 0)
        (effects (font (size 1.27 1.27)) hide)
      )
      (property "ki_keywords" "AVR 8bit Microcontroller MegaAVR SSOP" (id 8) (at 0 0 0)
        (effects (font (size 1.27 1.27)) hide)
      )
      (property "ki_description" "AtMega 0-series" (id 9) (at 0 0 0)
        (effects (font (size 1.27 1.27)) hide)
      )
      (property "ki_fp_filters" "AtMega3208/9*SOP*" (id 10) (at 0 0 0)
        (effects (font (size 1.27 1.27)) hide)
      )
      (symbol "AtMega3208-XF-Functional_0_1"
        (rectangle (start -15.24 -25.4) (end 15.24 25.4)
          (stroke (width 0.254) (type default) (color 0 0 0 0))
          (fill (type background))
        )
      )
      (symbol "AtMega3208-XF-Functional_1_1"
        (pin bidirectional line (at -17.78 0 0) (length 2.54)
          (name "PA7" (effects (font (size 1.27 1.27))))
          (number "1" (effects (font (size 1.27 1.27))))
          (alternate "AC0_OUT" output line)
          (alternate "CLKOUT" output clock)
          (alternate "EVOUTA" output line)
          (alternate "SPI0_SS" bidirectional line)
          (alternate "USART0_XDIR" output line)
        )
        (pin bidirectional line (at 17.78 7.62 180) (length 2.54)
          (name "PD4" (effects (font (size 1.27 1.27))))
          (number "10" (effects (font (size 1.27 1.27))))
          (alternate "AC0_P1" input line)
          (alternate "AIN4" input line)
          (alternate "TCA0-WO4" output line)
        )
        (pin bidirectional line (at 17.78 5.08 180) (length 2.54)
          (name "PD5" (effects (font (size 1.27 1.27))))
          (number "11" (effects (font (size 1.27 1.27))))
          (alternate "AC0_N1" input line)
          (alternate "AIN5" input line)
          (alternate "TCA0-WO5" output line)
        )
        (pin bidirectional line (at 17.78 2.54 180) (length 2.54)
          (name "PD6" (effects (font (size 1.27 1.27))))
          (number "12" (effects (font (size 1.27 1.27))))
          (alternate "AC0_P2" input line)
          (alternate "AIN6" input line)
          (alternate "CCL_2-OUT" output line)
        )
        (pin bidirectional line (at 17.78 0 180) (length 2.54)
          (name "PD7" (effects (font (size 1.27 1.27))))
          (number "13" (effects (font (size 1.27 1.27))))
          (alternate "AC0_N2" input line)
          (alternate "AIN7" input line)
          (alternate "EVOUTD" output line)
          (alternate "VREFA" input line)
        )
        (pin power_in line (at -5.08 27.94 270) (length 2.54)
          (name "AV_{DD}" (effects (font (size 1.27 1.27))))
          (number "14" (effects (font (size 1.27 1.27))))
        )
        (pin power_in line (at -5.08 -27.94 90) (length 2.54)
          (name "GND" (effects (font (size 1.27 1.27))))
          (number "15" (effects (font (size 1.27 1.27))))
        )
        (pin bidirectional line (at 17.78 -5.08 180) (length 2.54)
          (name "PF0" (effects (font (size 1.27 1.27))))
          (number "16" (effects (font (size 1.27 1.27))))
          (alternate "CCL_3-IN0" input line)
          (alternate "TCA0-WO0" output line)
          (alternate "TOSC1" bidirectional clock)
          (alternate "USART2_TRxD" bidirectional line)
          (alternate "USART2_TxD" output line)
        )
        (pin bidirectional line (at 17.78 -7.62 180) (length 2.54)
          (name "PF1" (effects (font (size 1.27 1.27))))
          (number "17" (effects (font (size 1.27 1.27))))
          (alternate "CCL_3-IN1" input line)
          (alternate "TCA0-WO1" output line)
          (alternate "TOSC2" bidirectional clock)
          (alternate "USART2_RxD" input line)
        )
        (pin bidirectional line (at 17.78 -10.16 180) (length 2.54)
          (name "PF6" (effects (font (size 1.27 1.27))))
          (number "18" (effects (font (size 1.27 1.27))))
          (alternate "CCL_3-OUT" output line)
          (alternate "USART2_XCK" bidirectional clock)
          (alternate "~{RESET}" input inverted)
        )
        (pin bidirectional line (at 17.78 -15.24 180) (length 2.54)
          (name "UPDI" (effects (font (size 1.27 1.27))))
          (number "19" (effects (font (size 1.27 1.27))))
        )
        (pin bidirectional line (at -17.78 -5.08 0) (length 2.54)
          (name "PC0" (effects (font (size 1.27 1.27))))
          (number "2" (effects (font (size 1.27 1.27))))
          (alternate "CCL_1-IN0" input line)
          (alternate "SPI0_MOSI" bidirectional line)
          (alternate "TCA0-WO0" output line)
          (alternate "TCB2-WO" output line)
          (alternate "USART1_TRxD" bidirectional line)
          (alternate "USART1_TxD" output line)
        )
        (pin power_in line (at -2.54 27.94 270) (length 2.54)
          (name "V_{DD}" (effects (font (size 1.27 1.27))))
          (number "20" (effects (font (size 1.27 1.27))))
        )
        (pin passive line (at -5.08 -27.94 90) (length 2.54) hide
          (name "GND" (effects (font (size 1.27 1.27))))
          (number "21" (effects (font (size 1.27 1.27))))
        )
        (pin bidirectional line (at -17.78 17.78 0) (length 2.54)
          (name "PA0" (effects (font (size 1.27 1.27))))
          (number "22" (effects (font (size 1.27 1.27))))
          (alternate "CCL_0-IN0" input line)
          (alternate "EXTCLK" input clock)
          (alternate "TCA0-WO0" output line)
          (alternate "USART0_TRxD" bidirectional line)
          (alternate "USART0_TxD" output line)
        )
        (pin bidirectional line (at -17.78 15.24 0) (length 2.54)
          (name "PA1" (effects (font (size 1.27 1.27))))
          (number "23" (effects (font (size 1.27 1.27))))
          (alternate "CCL_0-IN1" input line)
          (alternate "TCA0-WO1" output line)
          (alternate "USART0_RxD" input line)
        )
        (pin bidirectional line (at -17.78 12.7 0) (length 2.54)
          (name "PA2" (effects (font (size 1.27 1.27))))
          (number "24" (effects (font (size 1.27 1.27))))
          (alternate "CCL_0-IN2" input line)
          (alternate "EVOUTA" output line)
          (alternate "TCA0-WO2" output line)
          (alternate "TCB0-WO" output line)
          (alternate "TWI0_SDA_{MS}" bidirectional line)
          (alternate "USART0_XCK" bidirectional clock)
        )
        (pin bidirectional line (at -17.78 10.16 0) (length 2.54)
          (name "PA3" (effects (font (size 1.27 1.27))))
          (number "25" (effects (font (size 1.27 1.27))))
          (alternate "CCL_0-OUT" output line)
          (alternate "TCA0-WO3" output line)
          (alternate "TCB1-WO" output line)
          (alternate "TWI0_SCL_{MS}" bidirectional line)
          (alternate "USART0_XDIR" output line)
        )
        (pin bidirectional line (at -17.78 7.62 0) (length 2.54)
          (name "PA4" (effects (font (size 1.27 1.27))))
          (number "26" (effects (font (size 1.27 1.27))))
          (alternate "SPI0_MOSI" bidirectional line)
          (alternate "TCA0-WO4" output line)
          (alternate "USART0_TRxD" bidirectional line)
          (alternate "USART0_TxD" output line)
        )
        (pin bidirectional line (at -17.78 5.08 0) (length 2.54)
          (name "PA5" (effects (font (size 1.27 1.27))))
          (number "27" (effects (font (size 1.27 1.27))))
          (alternate "SPI0_MISO" bidirectional line)
          (alternate "TCA0-WO5" output line)
          (alternate "USART0_RxD" input line)
        )
        (pin bidirectional line (at -17.78 2.54 0) (length 2.54)
          (name "PA6" (effects (font (size 1.27 1.27))))
          (number "28" (effects (font (size 1.27 1.27))))
          (alternate "CCL_0-OUT" output line)
          (alternate "SPI0_SCK" bidirectional clock)
          (alternate "USART0_XCK" bidirectional clock)
        )
        (pin bidirectional line (at -17.78 -7.62 0) (length 2.54)
          (name "PC1" (effects (font (size 1.27 1.27))))
          (number "3" (effects (font (size 1.27 1.27))))
          (alternate "CCL_1-IN1" input line)
          (alternate "SPI0_MISO" bidirectional line)
          (alternate "TCA0-WO1" output line)
          (alternate "TCB3-WO" output line)
          (alternate "USART1_RxD" input line)
        )
        (pin bidirectional line (at -17.78 -10.16 0) (length 2.54)
          (name "PC2" (effects (font (size 1.27 1.27))))
          (number "4" (effects (font (size 1.27 1.27))))
          (alternate "CCL_1-IN2" input line)
          (alternate "EVOUTC" output line)
          (alternate "SPI0_SCK" bidirectional clock)
          (alternate "TCA0-WO2" output line)
          (alternate "TWI0_SDA_{MS}" bidirectional line)
          (alternate "USART1_XCK" bidirectional clock)
        )
        (pin bidirectional line (at -17.78 -12.7 0) (length 2.54)
          (name "PC3" (effects (font (size 1.27 1.27))))
          (number "5" (effects (font (size 1.27 1.27))))
          (alternate "CCL_1-OUT" output line)
          (alternate "SPI0_SS" bidirectional line)
          (alternate "TCA0-WO3" output line)
          (alternate "TWI0_SCL_{MS}" bidirectional line)
          (alternate "USART1_XDIR" output line)
        )
        (pin bidirectional line (at 17.78 17.78 180) (length 2.54)
          (name "PD0" (effects (font (size 1.27 1.27))))
          (number "6" (effects (font (size 1.27 1.27))))
          (alternate "AIN0" input line)
          (alternate "CCL_2-IN0" input line)
          (alternate "TCA0-WO0" output line)
        )
        (pin bidirectional line (at 17.78 15.24 180) (length 2.54)
          (name "PD1" (effects (font (size 1.27 1.27))))
          (number "7" (effects (font (size 1.27 1.27))))
          (alternate "AC0_P3" input line)
          (alternate "AIN1" input line)
          (alternate "CCL_2-IN1" input line)
          (alternate "TCA0-WO1" output line)
        )
        (pin bidirectional line (at 17.78 12.7 180) (length 2.54)
          (name "PD2" (effects (font (size 1.27 1.27))))
          (number "8" (effects (font (size 1.27 1.27))))
          (alternate "AC0_P0" input line)
          (alternate "AIN2" input line)
          (alternate "CCL_2-IN2" input line)
          (alternate "EVOUTD" output line)
          (alternate "TCA0-WO2" output line)
        )
        (pin bidirectional line (at 17.78 10.16 180) (length 2.54)
          (name "PD3" (effects (font (size 1.27 1.27))))
          (number "9" (effects (font (size 1.27 1.27))))
          (alternate "AC0_N0" input line)
          (alternate "AIN3" input line)
          (alternate "CCL_2-OUT" output line)
          (alternate "TCA0-WO3" output line)
        )
      )
    )
    (symbol "power:+5V" (power) (pin_names (offset 0)) (in_bom yes) (on_board yes)
      (property "Reference" "#PWR" (id 0) (at 0 -3.81 0)
        (effects (font (size 1.27 1.27)) hide)
      )
      (property "Value" "+5V" (id 1) (at 0 3.556 0)
        (effects (font (size 1.27 1.27)))
      )
      (property "Footprint" "" (id 2) (at 0 0 0)
        (effects (font (size 1.27 1.27)) hide)
      )
      (property "Datasheet" "" (id 3) (at 0 0 0)
        (effects (font (size 1.27 1.27)) hide)
      )
      (property "ki_keywords" "power-flag" (id 4) (at 0 0 0)
        (effects (font (size 1.27 1.27)) hide)
      )
      (property "ki_description" "Power symbol creates a global label with name \"+5V\"" (id 5) (at 0 0 0)
        (effects (font (size 1.27 1.27)) hide)
      )
      (symbol "+5V_0_1"
        (polyline
          (pts
            (xy -0.762 1.27)
            (xy 0 2.54)
          )
          (stroke (width 0) (type default) (color 0 0 0 0))
          (fill (type none))
        )
        (polyline
          (pts
            (xy 0 0)
            (xy 0 2.54)
          )
          (stroke (width 0) (type default) (color 0 0 0 0))
          (fill (type none))
        )
        (polyline
          (pts
            (xy 0 2.54)
            (xy 0.762 1.27)
          )
          (stroke (width 0) (type default) (color 0 0 0 0))
          (fill (type none))
        )
      )
      (symbol "+5V_1_1"
        (pin power_in line (at 0 0 90) (length 0) hide
          (name "+5V" (effects (font (size 1.27 1.27))))
          (number "1" (effects (font (size 1.27 1.27))))
        )
      )
    )
    (symbol "power:GND" (power) (pin_names (offset 0)) (in_bom yes) (on_board yes)
      (property "Reference" "#PWR" (id 0) (at 0 -6.35 0)
        (effects (font (size 1.27 1.27)) hide)
      )
      (property "Value" "GND" (id 1) (at 0 -3.81 0)
        (effects (font (size 1.27 1.27)))
      )
      (property "Footprint" "" (id 2) (at 0 0 0)
        (effects (font (size 1.27 1.27)) hide)
      )
      (property "Datasheet" "" (id 3) (at 0 0 0)
        (effects (font (size 1.27 1.27)) hide)
      )
      (property "ki_keywords" "power-flag" (id 4) (at 0 0 0)
        (effects (font (size 1.27 1.27)) hide)
      )
      (property "ki_description" "Power symbol creates a global label with name \"GND\" , ground" (id 5) (at 0 0 0)
        (effects (font (size 1.27 1.27)) hide)
      )
      (symbol "GND_0_1"
        (polyline
          (pts
            (xy 0 0)
            (xy 0 -1.27)
            (xy 1.27 -1.27)
            (xy 0 -2.54)
            (xy -1.27 -1.27)
            (xy 0 -1.27)
          )
          (stroke (width 0) (type default) (color 0 0 0 0))
          (fill (type none))
        )
      )
      (symbol "GND_1_1"
        (pin power_in line (at 0 0 270) (length 0) hide
          (name "GND" (effects (font (size 1.27 1.27))))
          (number "1" (effects (font (size 1.27 1.27))))
        )
      )
    )
    (symbol "power:PWR_FLAG" (power) (pin_numbers hide) (pin_names (offset 0) hide) (in_bom yes) (on_board yes)
      (property "Reference" "#FLG" (id 0) (at 0 1.905 0)
        (effects (font (size 1.27 1.27)) hide)
      )
      (property "Value" "PWR_FLAG" (id 1) (at 0 3.81 0)
        (effects (font (size 1.27 1.27)))
      )
      (property "Footprint" "" (id 2) (at 0 0 0)
        (effects (font (size 1.27 1.27)) hide)
      )
      (property "Datasheet" "~" (id 3) (at 0 0 0)
        (effects (font (size 1.27 1.27)) hide)
      )
      (property "ki_keywords" "power-flag" (id 4) (at 0 0 0)
        (effects (font (size 1.27 1.27)) hide)
      )
      (property "ki_description" "Special symbol for telling ERC where power comes from" (id 5) (at 0 0 0)
        (effects (font (size 1.27 1.27)) hide)
      )
      (symbol "PWR_FLAG_0_0"
        (pin power_out line (at 0 0 90) (length 0)
          (name "pwr" (effects (font (size 1.27 1.27))))
          (number "1" (effects (font (size 1.27 1.27))))
        )
      )
      (symbol "PWR_FLAG_0_1"
        (polyline
          (pts
            (xy 0 0)
            (xy 0 1.27)
            (xy -1.016 1.905)
            (xy 0 2.54)
            (xy 1.016 1.905)
            (xy 0 1.27)
          )
          (stroke (width 0) (type default) (color 0 0 0 0))
          (fill (type none))
        )
      )
    )
  )

  (junction (at 57.15 182.88) (diameter 0) (color 0 0 0 0)
    (uuid 038e6feb-718c-4fb8-b305-bef633bcc651)
  )
  (junction (at 36.83 182.88) (diameter 0) (color 0 0 0 0)
    (uuid 13003e69-8efc-4cb8-996a-ea6a29961dbc)
  )
  (junction (at 44.45 187.96) (diameter 0) (color 0 0 0 0)
    (uuid 34e3226d-9389-43cd-9194-beb06cd20cf6)
  )
  (junction (at 57.15 187.96) (diameter 0) (color 0 0 0 0)
    (uuid 5e9f61e2-1eb1-4c7a-8664-9bbcf973f777)
  )
  (junction (at 44.45 182.88) (diameter 0) (color 0 0 0 0)
    (uuid 65963526-edf1-4d0b-bb46-c726e65c871d)
  )
  (junction (at 46.99 187.96) (diameter 0) (color 0 0 0 0)
    (uuid 81cf365e-7b34-40f6-87f4-a49c39ca62f4)
  )
  (junction (at 46.99 182.88) (diameter 0) (color 0 0 0 0)
    (uuid 936721bf-ed59-495b-b24c-bb267ed35989)
  )
  (junction (at 36.83 187.96) (diameter 0) (color 0 0 0 0)
    (uuid 961d8690-474a-4cbb-9e62-462ecba5281a)
  )
  (junction (at 77.47 40.64) (diameter 0) (color 0 0 0 0)
    (uuid b65a4311-eea0-4ce0-b0d5-fece17b157ea)
  )

  (no_connect (at 105.41 73.66) (uuid 2bfa8f8d-cc33-4fca-be0b-891466c4dc5e))
  (no_connect (at 105.41 76.2) (uuid 2bfa8f8d-cc33-4fca-be0b-891466c4dc5f))
  (no_connect (at 105.41 78.74) (uuid 2bfa8f8d-cc33-4fca-be0b-891466c4dc60))

  (wire (pts (xy 60.96 81.28) (xy 64.77 81.28))
    (stroke (width 0) (type default) (color 0 0 0 0))
    (uuid 02490cdd-2ddd-4247-9976-e40636c3b9e9)
  )
  (wire (pts (xy 46.99 187.96) (xy 44.45 187.96))
    (stroke (width 0) (type default) (color 0 0 0 0))
    (uuid 02e64cc3-a652-45d2-aa16-049fc3f85424)
  )
  (wire (pts (xy 60.96 68.58) (xy 64.77 68.58))
    (stroke (width 0) (type default) (color 0 0 0 0))
    (uuid 08bad1ef-7879-432e-92ea-cae26bc2291c)
  )
  (wire (pts (xy 100.33 76.2) (xy 105.41 76.2))
    (stroke (width 0) (type default) (color 0 0 0 0))
    (uuid 0fdccf07-87de-48c8-92d6-2e3df1f24ab5)
  )
  (polyline (pts (xy 124.46 147.32) (xy 124.46 166.37))
    (stroke (width 0) (type default) (color 0 0 0 0))
    (uuid 1553ab8b-cb19-462b-af63-28507021c326)
  )

  (wire (pts (xy 100.33 58.42) (xy 105.41 58.42))
    (stroke (width 0) (type default) (color 0 0 0 0))
    (uuid 1689d04f-aaa4-445b-9f15-b5fc6b40c6c8)
  )
  (wire (pts (xy 31.75 153.67) (xy 60.96 153.67))
    (stroke (width 0) (type default) (color 0 0 0 0))
    (uuid 19acd61a-7678-4e2c-8c99-44c6cc7fedc5)
  )
  (wire (pts (xy 57.15 187.96) (xy 46.99 187.96))
    (stroke (width 0) (type default) (color 0 0 0 0))
    (uuid 1ed265a3-e11b-4e39-a423-95d02aafc49f)
  )
  (wire (pts (xy 240.03 157.48) (xy 248.92 157.48))
    (stroke (width 0) (type default) (color 0 0 0 0))
    (uuid 22880223-a938-4658-b260-0d3020574e99)
  )
  (wire (pts (xy 100.33 66.04) (xy 105.41 66.04))
    (stroke (width 0) (type default) (color 0 0 0 0))
    (uuid 352ee1b4-ab5f-4420-b10a-ddeed7992db3)
  )
  (polyline (pts (xy 148.59 12.7) (xy 148.59 146.05))
    (stroke (width 0) (type default) (color 0 0 0 0))
    (uuid 42021648-a9ff-4c47-be97-ee1b1af2a14a)
  )

  (wire (pts (xy 64.77 53.34) (xy 60.96 53.34))
    (stroke (width 0) (type default) (color 0 0 0 0))
    (uuid 472e239a-a22d-47a1-916b-b6adfa9b9839)
  )
  (wire (pts (xy 60.96 66.04) (xy 64.77 66.04))
    (stroke (width 0) (type default) (color 0 0 0 0))
    (uuid 4bb6aa50-20a8-40c0-9694-aa4503d2e061)
  )
  (wire (pts (xy 100.33 53.34) (xy 105.41 53.34))
    (stroke (width 0) (type default) (color 0 0 0 0))
    (uuid 4ca3c36f-717a-4b91-a066-a65a84a7308b)
  )
  (wire (pts (xy 60.96 73.66) (xy 64.77 73.66))
    (stroke (width 0) (type default) (color 0 0 0 0))
    (uuid 4d9a8812-55af-4e48-9a07-ec67adfe8869)
  )
  (wire (pts (xy 36.83 182.88) (xy 44.45 182.88))
    (stroke (width 0) (type default) (color 0 0 0 0))
    (uuid 4fc796f7-3c79-4440-9470-e6eb0551b4c3)
  )
  (wire (pts (xy 36.83 187.96) (xy 36.83 186.69))
    (stroke (width 0) (type default) (color 0 0 0 0))
    (uuid 549f2314-4760-45f5-ab4d-c8e515b1cae0)
  )
  (wire (pts (xy 73.66 189.23) (xy 57.15 189.23))
    (stroke (width 0) (type default) (color 0 0 0 0))
    (uuid 565c87c3-ad45-43a0-864b-a5f70e35f065)
  )
  (wire (pts (xy 100.33 55.88) (xy 105.41 55.88))
    (stroke (width 0) (type default) (color 0 0 0 0))
    (uuid 57b9683d-3898-4a18-8291-6047de9ba7f2)
  )
  (wire (pts (xy 36.83 184.15) (xy 36.83 182.88))
    (stroke (width 0) (type default) (color 0 0 0 0))
    (uuid 6322f1e2-f35e-410e-99c3-359f5a6c6aa6)
  )
  (wire (pts (xy 44.45 182.88) (xy 46.99 182.88))
    (stroke (width 0) (type default) (color 0 0 0 0))
    (uuid 63d56d7d-2531-42f7-aedc-8d98af7e0bdd)
  )
  (wire (pts (xy 73.66 181.61) (xy 57.15 181.61))
    (stroke (width 0) (type default) (color 0 0 0 0))
    (uuid 67e75ab1-364a-4974-a694-e038ea1ddedb)
  )
  (wire (pts (xy 60.96 78.74) (xy 64.77 78.74))
    (stroke (width 0) (type default) (color 0 0 0 0))
    (uuid 68e732d6-92f7-4357-ae6e-d6a976463c79)
  )
  (wire (pts (xy 185.42 33.02) (xy 190.5 33.02))
    (stroke (width 0) (type default) (color 0 0 0 0))
    (uuid 6b2ac36e-2b29-4985-aa7e-544239285821)
  )
  (wire (pts (xy 264.16 160.02) (xy 269.24 160.02))
    (stroke (width 0) (type default) (color 0 0 0 0))
    (uuid 704010e3-c2de-4df6-84ef-e29c3385e6c3)
  )
  (wire (pts (xy 60.96 55.88) (xy 64.77 55.88))
    (stroke (width 0) (type default) (color 0 0 0 0))
    (uuid 73acbe8c-5398-4f87-810f-fda1ea012e32)
  )
  (wire (pts (xy 100.33 68.58) (xy 105.41 68.58))
    (stroke (width 0) (type default) (color 0 0 0 0))
    (uuid 79482089-e105-4cc1-9702-fc2aa4e28677)
  )
  (wire (pts (xy 36.83 187.96) (xy 44.45 187.96))
    (stroke (width 0) (type default) (color 0 0 0 0))
    (uuid 7c96e39b-25ad-48ff-b6c6-bb68994949a2)
  )
  (wire (pts (xy 77.47 96.52) (xy 77.47 99.06))
    (stroke (width 0) (type default) (color 0 0 0 0))
    (uuid 7d2ad1f5-f69e-4abf-94ea-a61ef67142f4)
  )
  (wire (pts (xy 100.33 83.82) (xy 105.41 83.82))
    (stroke (width 0) (type default) (color 0 0 0 0))
    (uuid 8547231b-655d-4dc1-90f6-5d7d466e2d62)
  )
  (wire (pts (xy 77.47 36.83) (xy 77.47 40.64))
    (stroke (width 0) (type default) (color 0 0 0 0))
    (uuid 859947bb-b2e0-43e3-8ea1-ad5a6dc020eb)
  )
  (wire (pts (xy 236.22 33.02) (xy 245.11 33.02))
    (stroke (width 0) (type default) (color 0 0 0 0))
    (uuid 9ced2097-e85d-43e5-8509-766ec57f57d2)
  )
  (wire (pts (xy 46.99 182.88) (xy 57.15 182.88))
    (stroke (width 0) (type default) (color 0 0 0 0))
    (uuid 9ec1053a-eab1-4cfb-936c-04132d835f17)
  )
  (wire (pts (xy 252.73 33.02) (xy 259.08 33.02))
    (stroke (width 0) (type default) (color 0 0 0 0))
    (uuid a57c3d9d-9539-476d-a4a9-6b22280e2189)
  )
  (wire (pts (xy 60.96 58.42) (xy 64.77 58.42))
    (stroke (width 0) (type default) (color 0 0 0 0))
    (uuid ad4a2d68-6c7c-4668-88f5-e0de6d2a61ca)
  )
  (wire (pts (xy 250.19 55.88) (xy 252.73 55.88))
    (stroke (width 0) (type default) (color 0 0 0 0))
    (uuid b648ef4e-a548-45f5-90db-aeb18a820b5a)
  )
  (wire (pts (xy 64.77 50.8) (xy 60.96 50.8))
    (stroke (width 0) (type default) (color 0 0 0 0))
    (uuid bdc1efb5-42d2-4e72-8718-c7952708db01)
  )
  (wire (pts (xy 39.37 158.75) (xy 31.75 158.75))
    (stroke (width 0) (type default) (color 0 0 0 0))
    (uuid c033eaf7-9e95-428c-ab4f-8163c78ed3a8)
  )
  (wire (pts (xy 77.47 40.64) (xy 80.01 40.64))
    (stroke (width 0) (type default) (color 0 0 0 0))
    (uuid c08dfb95-69ce-4d28-ba1b-bb748301c416)
  )
  (wire (pts (xy 60.96 76.2) (xy 64.77 76.2))
    (stroke (width 0) (type default) (color 0 0 0 0))
    (uuid c60d72fb-e1fa-46db-be15-9763163e1c03)
  )
  (polyline (pts (xy 12.7 166.37) (xy 176.53 166.37))
    (stroke (width 0) (type default) (color 0 0 0 0))
    (uuid ccae10e7-291c-452a-b4d5-06926832e7c4)
  )

  (wire (pts (xy 68.58 153.67) (xy 77.47 153.67))
    (stroke (width 0) (type default) (color 0 0 0 0))
    (uuid cccb275f-bb12-40ec-96d6-01f6079e1e73)
  )
  (wire (pts (xy 57.15 189.23) (xy 57.15 187.96))
    (stroke (width 0) (type default) (color 0 0 0 0))
    (uuid ce9829a0-c1c6-48ed-8531-82eabd89970a)
  )
  (wire (pts (xy 60.96 63.5) (xy 64.77 63.5))
    (stroke (width 0) (type default) (color 0 0 0 0))
    (uuid cf573ebb-4e77-4a7c-822b-e8512bd3ac37)
  )
  (wire (pts (xy 100.33 50.8) (xy 105.41 50.8))
    (stroke (width 0) (type default) (color 0 0 0 0))
    (uuid d249d621-a0ec-4fd6-8889-45dda9103032)
  )
  (wire (pts (xy 100.33 73.66) (xy 105.41 73.66))
    (stroke (width 0) (type default) (color 0 0 0 0))
    (uuid d24d0f1b-0eea-44c9-af17-96f3c8a07c85)
  )
  (wire (pts (xy 100.33 60.96) (xy 105.41 60.96))
    (stroke (width 0) (type default) (color 0 0 0 0))
    (uuid d401b9d4-a255-44f5-a432-68e931b3c7f9)
  )
  (polyline (pts (xy 12.7 146.05) (xy 284.48 146.05))
    (stroke (width 0) (type default) (color 0 0 0 0))
    (uuid d5c8699d-b5fc-4486-b1da-e3704630878c)
  )
  (polyline (pts (xy 218.44 12.7) (xy 218.44 146.05))
    (stroke (width 0) (type default) (color 0 0 0 0))
    (uuid d63f3da4-5c7e-47df-87f8-8d9bcd480700)
  )

  (wire (pts (xy 57.15 181.61) (xy 57.15 182.88))
    (stroke (width 0) (type default) (color 0 0 0 0))
    (uuid e28b09da-ac41-482f-b701-02bc8d092c67)
  )
  (wire (pts (xy 60.96 60.96) (xy 64.77 60.96))
    (stroke (width 0) (type default) (color 0 0 0 0))
    (uuid e82e6c3a-dba3-44b6-823e-2bd844f08cca)
  )
  (wire (pts (xy 100.33 78.74) (xy 105.41 78.74))
    (stroke (width 0) (type default) (color 0 0 0 0))
    (uuid ed5455bc-18cd-445f-bf6c-c5b862b9b3a6)
  )
  (wire (pts (xy 100.33 63.5) (xy 105.41 63.5))
    (stroke (width 0) (type default) (color 0 0 0 0))
    (uuid f4f6a070-1bb0-4bd7-923a-562dd2625f10)
  )
  (wire (pts (xy 31.75 156.21) (xy 40.64 156.21))
    (stroke (width 0) (type default) (color 0 0 0 0))
    (uuid f80630b0-e50b-47d0-bcea-92ad6665c973)
  )
  (wire (pts (xy 39.37 160.02) (xy 39.37 158.75))
    (stroke (width 0) (type default) (color 0 0 0 0))
    (uuid fa445704-acc5-467f-9eac-4c4e2d1bc951)
  )
  (wire (pts (xy 248.92 58.42) (xy 252.73 58.42))
    (stroke (width 0) (type default) (color 0 0 0 0))
    (uuid fd70b16d-c2d7-448e-a346-35771d1d0150)
  )

  (text "Output Connectors" (at 236.22 17.78 0)
    (effects (font (size 2.5 2.5)) (justify left bottom))
    (uuid 0cf876da-ade3-4b4e-84d2-a77bba8d06e9)
  )
  (text "PWM Output Driver" (at 162.56 20.32 0)
    (effects (font (size 2.5 2.5)) (justify left bottom))
    (uuid 4297f304-5ef1-4286-9eb6-669d794b0bdd)
  )
  (text "Programming Adapter" (at 81.28 165.1 0)
    (effects (font (size 2.5 2.5)) (justify left bottom))
    (uuid 4741bb82-d4e7-4040-8951-62d8f54c85a8)
  )
  (text "Power\nIndicator\nLED" (at 107.95 186.69 0)
    (effects (font (size 2.5 2.5)) (justify left bottom))
    (uuid 912e1a9e-e086-4da5-abe1-6cf453a03cb7)
  )
  (text "USB-A Power Input" (at 40.64 175.26 0)
    (effects (font (size 2.5 2.5)) (justify left bottom))
    (uuid 9168c55d-de82-429d-b33e-c93fdde7eb2f)
  )
  (text "Controller" (at 58.42 27.94 0)
    (effects (font (size 2.5 2.5)) (justify left bottom))
    (uuid c1757531-4908-4998-bf79-730edd2f03dc)
  )
  (text "Controller: AtMega-0-series SSOP28 package\n\nEven the smallest one (Mega808-XF) should work fine.\nTest was done with Mega3208-XF on prototype PCBs.\n\nThis is the simplified version with only one output.\nThe detect pins are handled so that the complex firmware can be used.\nThe LEDs, extra inputs and PWMs are left open and unused."
    (at 54.61 135.89 0)
    (effects (font (size 1.27 1.27)) (justify left bottom))
    (uuid d2ac5ca1-6a00-4abe-a7ec-0256f1819b8a)
  )
  (text "Simplified Detector:\nalways assume PWM1 is there, the others are not"
    (at 233.68 44.45 0)
    (effects (font (size 1.27 1.27)) (justify left bottom))
    (uuid eae44809-70aa-45a9-b0d2-8d48cc11a9ed)
  )
  (text "Input Devices" (at 195.58 154.94 0)
    (effects (font (size 2.5 2.5)) (justify left bottom))
    (uuid ed421160-b982-4367-82cd-e2041ef1b7fe)
  )

  (label "LED_A" (at 105.41 60.96 0)
    (effects (font (size 1.27 1.27)) (justify left bottom))
    (uuid 19959ccb-4843-4849-bd35-99067013b65e)
  )
  (label "LED_1" (at 105.41 50.8 0)
    (effects (font (size 1.27 1.27)) (justify left bottom))
    (uuid 1a9a5650-8b07-4948-94e7-abfe7a4c1382)
  )
  (label "RE_B" (at 60.96 66.04 180)
    (effects (font (size 1.27 1.27)) (justify right bottom))
    (uuid 2568f7bc-1559-40f8-9d03-0bdaf428ff76)
  )
  (label "PWM_Pre4" (at 60.96 81.28 180)
    (effects (font (size 1.27 1.27)) (justify right bottom))
    (uuid 3969a30f-0a69-4548-b64c-b63b854f04f0)
  )
  (label "LED_3" (at 105.41 55.88 0)
    (effects (font (size 1.27 1.27)) (justify left bottom))
    (uuid 3b0304ef-b515-4b39-a3eb-6454c519557e)
  )
  (label "PWM_Out1" (at 190.5 33.02 0)
    (effects (font (size 1.27 1.27)) (justify left bottom))
    (uuid 474a2f78-6cde-4f9f-b2b9-ef4cfd09ff38)
  )
  (label "LED_B" (at 105.41 63.5 0)
    (effects (font (size 1.27 1.27)) (justify left bottom))
    (uuid 4c767b5a-dcb6-4538-8c8d-0a41e80f1604)
  )
  (label "Detect1" (at 60.96 50.8 180)
    (effects (font (size 1.27 1.27)) (justify right bottom))
    (uuid 54391985-ba3e-4f6f-b6f3-e3276124065c)
  )
  (label "PWM_Pre1" (at 170.18 38.1 180)
    (effects (font (size 1.27 1.27)) (justify right bottom))
    (uuid 58b6b512-a78c-4e2f-b71b-c00f32759e3f)
  )
  (label "PWM_Pre1" (at 60.96 73.66 180)
    (effects (font (size 1.27 1.27)) (justify right bottom))
    (uuid 5a1a1ff5-c0b0-410c-96f6-f6e3f624b72e)
  )
  (label "RE_L" (at 248.92 154.94 180)
    (effects (font (size 1.27 1.27)) (justify right bottom))
    (uuid 5e4ac61a-e97a-4e98-9b2b-88e692d9253d)
  )
  (label "Detect4" (at 60.96 58.42 180)
    (effects (font (size 1.27 1.27)) (justify right bottom))
    (uuid 7d49201e-131b-446e-b969-9293382c6f67)
  )
  (label "IN_Xtra" (at 60.96 68.58 180)
    (effects (font (size 1.27 1.27)) (justify right bottom))
    (uuid 7fa719d5-4265-4d0e-bab9-a8d203e6eeda)
  )
  (label "PWM_Out1" (at 248.92 58.42 180)
    (effects (font (size 1.27 1.27)) (justify right bottom))
    (uuid 83cc890b-42a9-4dc9-a684-10f02209e42f)
  )
  (label "Detect1" (at 259.08 33.02 0)
    (effects (font (size 1.27 1.27)) (justify left bottom))
    (uuid 881970e8-cbc7-42bb-a5fd-61136d9dd521)
  )
  (label "PWM_Pre2" (at 60.96 76.2 180)
    (effects (font (size 1.27 1.27)) (justify right bottom))
    (uuid 89b4e2fc-d225-43e7-a30f-7e52311a06e5)
  )
  (label "LED_4" (at 105.41 58.42 0)
    (effects (font (size 1.27 1.27)) (justify left bottom))
    (uuid 987e969d-c517-492e-a6b4-b6fe5f90ed08)
  )
  (label "LED_D" (at 105.41 68.58 0)
    (effects (font (size 1.27 1.27)) (justify left bottom))
    (uuid 9d95df17-28dd-48b2-8022-b76561d40fee)
  )
  (label "LED_C" (at 105.41 66.04 0)
    (effects (font (size 1.27 1.27)) (justify left bottom))
    (uuid a5d930d9-fe92-4636-9722-bd3d7935894b)
  )
  (label "RE_R" (at 60.96 63.5 180)
    (effects (font (size 1.27 1.27)) (justify right bottom))
    (uuid a986de7c-adc5-454b-9985-6bc59e6a08e0)
  )
  (label "Detect3" (at 60.96 55.88 180)
    (effects (font (size 1.27 1.27)) (justify right bottom))
    (uuid c2d3ebe2-2fdd-4bb3-bb11-550ec8efaaa9)
  )
  (label "RE_L" (at 60.96 60.96 180)
    (effects (font (size 1.27 1.27)) (justify right bottom))
    (uuid d2c922c3-07fa-4fe0-8131-a97320cccaa0)
  )
  (label "LED_2" (at 105.41 53.34 0)
    (effects (font (size 1.27 1.27)) (justify left bottom))
    (uuid da09173c-816c-427f-8ed9-371b8bdd4a37)
  )
  (label "Prog_UPDI" (at 105.41 83.82 0)
    (effects (font (size 1.27 1.27)) (justify left bottom))
    (uuid e7f245e7-8540-47eb-ac28-00cda0410bb9)
  )
  (label "Detect2" (at 60.96 53.34 180)
    (effects (font (size 1.27 1.27)) (justify right bottom))
    (uuid f3d0e29c-5ed1-4674-a734-b5d4bd65e4f2)
  )
  (label "Prog_UPDI" (at 40.64 156.21 0)
    (effects (font (size 1.27 1.27)) (justify left bottom))
    (uuid f93f7fa8-bf29-463c-8744-be9eb763123c)
  )
  (label "PWM_Pre3" (at 60.96 78.74 180)
    (effects (font (size 1.27 1.27)) (justify right bottom))
    (uuid f98f9aa2-35b7-438a-b3a1-4be36304159f)
  )
  (label "RE_B" (at 264.16 154.94 0)
    (effects (font (size 1.27 1.27)) (justify left bottom))
    (uuid f9dc290f-864c-4c97-bc80-4c2aaeb3266c)
  )
  (label "RE_R" (at 248.92 160.02 180)
    (effects (font (size 1.27 1.27)) (justify right bottom))
    (uuid fa80b944-2618-41f3-b8e4-acf075772bbf)
  )

  (symbol (lib_id "power:PWR_FLAG") (at 36.83 187.96 0) (mirror x) (unit 1)
    (in_bom yes) (on_board yes)
    (uuid 0af4d798-71a9-43b8-a8b6-7bc0b0a8aae7)
    (property "Reference" "#FLG02" (id 0) (at 36.83 189.865 0)
      (effects (font (size 1.27 1.27)) hide)
    )
    (property "Value" "PWR_FLAG" (id 1) (at 36.83 191.77 0))
    (property "Footprint" "" (id 2) (at 36.83 187.96 0)
      (effects (font (size 1.27 1.27)) hide)
    )
    (property "Datasheet" "~" (id 3) (at 36.83 187.96 0)
      (effects (font (size 1.27 1.27)) hide)
    )
    (pin "1" (uuid 03ebbcd0-71c5-4635-a170-7b25a9ba78fc))
  )

  (symbol (lib_id "power:+5V") (at 250.19 55.88 0) (mirror y) (unit 1)
    (in_bom yes) (on_board yes)
    (uuid 0e7df0b5-3fa9-4553-b8c8-f9b9084f29f2)
    (property "Reference" "#PWR022" (id 0) (at 250.19 59.69 0)
      (effects (font (size 1.27 1.27)) hide)
    )
    (property "Value" "+5V" (id 1) (at 250.19 52.324 0))
    (property "Footprint" "" (id 2) (at 250.19 55.88 0)
      (effects (font (size 1.27 1.27)) hide)
    )
    (property "Datasheet" "" (id 3) (at 250.19 55.88 0)
      (effects (font (size 1.27 1.27)) hide)
    )
    (pin "1" (uuid 0227d57f-674c-4d6a-b5f3-1ceba525a6d2))
  )

  (symbol (lib_id "power:+5V") (at 44.45 182.88 0) (mirror y) (unit 1)
    (in_bom yes) (on_board yes)
    (uuid 167228d6-e33b-4427-91b1-14645f6d30d6)
    (property "Reference" "#PWR011" (id 0) (at 44.45 186.69 0)
      (effects (font (size 1.27 1.27)) hide)
    )
    (property "Value" "+5V" (id 1) (at 44.45 179.324 0))
    (property "Footprint" "" (id 2) (at 44.45 182.88 0)
      (effects (font (size 1.27 1.27)) hide)
    )
    (property "Datasheet" "" (id 3) (at 44.45 182.88 0)
      (effects (font (size 1.27 1.27)) hide)
    )
    (pin "1" (uuid 598e4f3e-fd97-4dea-a1f8-512e6947f667))
  )

  (symbol (lib_id "Device:Q_NMOS_GDS") (at 182.88 38.1 0) (unit 1)
    (in_bom yes) (on_board yes)
    (uuid 1a7017c6-e91e-459c-95d5-85b95972f210)
    (property "Reference" "Q1" (id 0) (at 187.96 36.83 0)
      (effects (font (size 1.27 1.27)) (justify left))
    )
    (property "Value" "STP40NF03L" (id 1) (at 187.96 39.37 0)
      (effects (font (size 1.27 1.27)) (justify left))
    )
    (property "Footprint" "Package_TO_SOT_THT:TO-220-3_Vertical" (id 2) (at 187.96 35.56 0)
      (effects (font (size 1.27 1.27)) hide)
    )
    (property "Datasheet" "~" (id 3) (at 182.88 38.1 0)
      (effects (font (size 1.27 1.27)) hide)
    )
    (pin "1" (uuid bebcdeee-3898-4f16-baea-ac628bb77c3b))
    (pin "2" (uuid 05465f03-cb2a-47cb-b0f3-e0d6da4c55df))
    (pin "3" (uuid e2d1c3bd-99bb-4322-a5e2-0b503ddd5a25))
  )

  (symbol (lib_id "Diode:1N4001") (at 64.77 153.67 0) (mirror y) (unit 1)
    (in_bom yes) (on_board yes)
    (uuid 1be804aa-31f2-4ea6-a89a-e2ea7086b74a)
    (property "Reference" "D11" (id 0) (at 64.77 151.13 0))
    (property "Value" "1N4001" (id 1) (at 64.77 156.21 0))
    (property "Footprint" "Diode_THT:D_DO-41_SOD81_P10.16mm_Horizontal" (id 2) (at 64.77 158.115 0)
      (effects (font (size 1.27 1.27)) hide)
    )
    (property "Datasheet" "http://www.vishay.com/docs/88503/1n4001.pdf" (id 3) (at 64.77 153.67 0)
      (effects (font (size 1.27 1.27)) hide)
    )
    (pin "1" (uuid a189b842-1213-43bc-bb6b-0929510247af))
    (pin "2" (uuid 51c0a517-85f3-438d-b15e-49f5d720c38f))
  )

  (symbol (lib_id "Connector:Conn_01x03_Male") (at 26.67 156.21 0) (unit 1)
    (in_bom yes) (on_board yes)
    (uuid 2888dfdc-a31e-4bca-bd6d-16d12893749c)
    (property "Reference" "J1" (id 0) (at 26.67 151.13 0))
    (property "Value" "Prog" (id 1) (at 26.67 161.29 0))
    (property "Footprint" "Connector_PinHeader_2.54mm:PinHeader_1x03_P2.54mm_Vertical" (id 2) (at 26.67 156.21 0)
      (effects (font (size 1.27 1.27)) hide)
    )
    (property "Datasheet" "~" (id 3) (at 26.67 156.21 0)
      (effects (font (size 1.27 1.27)) hide)
    )
    (pin "1" (uuid 86390f77-1364-48cf-8792-2b6f696cba80))
    (pin "2" (uuid f4ce0cb6-9dff-4af3-9318-c5d8792eeda4))
    (pin "3" (uuid 3f634b2f-2b02-4957-86d5-437ff35a39ad))
  )

  (symbol (lib_id "power:GND") (at 269.24 160.02 0) (unit 1)
    (in_bom yes) (on_board yes)
    (uuid 29b86736-0448-414a-9f1c-2a79266d4f2a)
    (property "Reference" "#PWR04" (id 0) (at 269.24 166.37 0)
      (effects (font (size 1.27 1.27)) hide)
    )
    (property "Value" "GND" (id 1) (at 269.24 163.83 0))
    (property "Footprint" "" (id 2) (at 269.24 160.02 0)
      (effects (font (size 1.27 1.27)) hide)
    )
    (property "Datasheet" "" (id 3) (at 269.24 160.02 0)
      (effects (font (size 1.27 1.27)) hide)
    )
    (pin "1" (uuid c4502953-ab6c-4a45-8256-bceff7246b78))
  )

  (symbol (lib_id "power:GND") (at 240.03 157.48 0) (unit 1)
    (in_bom yes) (on_board yes)
    (uuid 2c72ac4c-84c3-4eff-875f-732613cafd88)
    (property "Reference" "#PWR01" (id 0) (at 240.03 163.83 0)
      (effects (font (size 1.27 1.27)) hide)
    )
    (property "Value" "GND" (id 1) (at 240.03 161.29 0))
    (property "Footprint" "" (id 2) (at 240.03 157.48 0)
      (effects (font (size 1.27 1.27)) hide)
    )
    (property "Datasheet" "" (id 3) (at 240.03 157.48 0)
      (effects (font (size 1.27 1.27)) hide)
    )
    (pin "1" (uuid 9fb752e6-9697-4d9a-acae-76a43adfd9d9))
  )

  (symbol (lib_id "Device:D_Zener") (at 73.66 185.42 270) (unit 1)
    (in_bom yes) (on_board yes)
    (uuid 33cefcd2-17fd-460c-9af7-b187946bb5af)
    (property "Reference" "D4" (id 0) (at 76.2 185.42 0))
    (property "Value" "6V" (id 1) (at 71.12 185.42 0))
    (property "Footprint" "Diode_THT:D_DO-41_SOD81_P10.16mm_Horizontal" (id 2) (at 73.66 185.42 0)
      (effects (font (size 1.27 1.27)) hide)
    )
    (property "Datasheet" "~" (id 3) (at 73.66 185.42 0)
      (effects (font (size 1.27 1.27)) hide)
    )
    (pin "1" (uuid 72b84772-49e7-4f2b-85e1-a7f7ed6f3fa3))
    (pin "2" (uuid 4ef6e37c-110f-4b75-846a-1f0da7f99081))
  )

  (symbol (lib_id "Device:R") (at 133.35 185.42 0) (unit 1)
    (in_bom yes) (on_board yes)
    (uuid 3a58f83e-80fc-4ade-98ac-21e310777af6)
    (property "Reference" "R11" (id 0) (at 135.382 185.42 90))
    (property "Value" "1kΩ" (id 1) (at 133.35 185.42 90))
    (property "Footprint" "Resistor_SMD:R_0603_1608Metric_Pad0.98x0.95mm_HandSolder" (id 2) (at 131.572 185.42 90)
      (effects (font (size 1.27 1.27)) hide)
    )
    (property "Datasheet" "~" (id 3) (at 133.35 185.42 0)
      (effects (font (size 1.27 1.27)) hide)
    )
    (pin "1" (uuid dbe7104e-3ae2-421c-88f1-82d6c941c875))
    (pin "2" (uuid 43142022-d9b0-41b2-9c30-23c5f2c2248f))
  )

  (symbol (lib_id "Device:C_Polarized_Small") (at 57.15 185.42 0) (unit 1)
    (in_bom yes) (on_board yes)
    (uuid 3e72ada8-8ce3-4b7c-a246-8cd503a37952)
    (property "Reference" "C2" (id 0) (at 57.404 183.642 0)
      (effects (font (size 1.27 1.27)) (justify left))
    )
    (property "Value" "47µF" (id 1) (at 57.404 187.452 0)
      (effects (font (size 1.27 1.27)) (justify left))
    )
    (property "Footprint" "Capacitor_SMD:CP_Elec_6.3x5.4" (id 2) (at 57.15 185.42 0)
      (effects (font (size 1.27 1.27)) hide)
    )
    (property "Datasheet" "~" (id 3) (at 57.15 185.42 0)
      (effects (font (size 1.27 1.27)) hide)
    )
    (pin "1" (uuid 764b93a6-b604-474f-8b9c-ebc378eb1d50))
    (pin "2" (uuid 064f0b61-4efb-4aed-9da4-4d921b143673))
  )

  (symbol (lib_id "power:GND") (at 39.37 160.02 0) (unit 1)
    (in_bom yes) (on_board yes)
    (uuid 41a0c418-76ed-4b09-9a6b-d8a9a0970001)
    (property "Reference" "#PWR010" (id 0) (at 39.37 166.37 0)
      (effects (font (size 1.27 1.27)) hide)
    )
    (property "Value" "GND" (id 1) (at 39.37 163.83 0))
    (property "Footprint" "" (id 2) (at 39.37 160.02 0)
      (effects (font (size 1.27 1.27)) hide)
    )
    (property "Datasheet" "" (id 3) (at 39.37 160.02 0)
      (effects (font (size 1.27 1.27)) hide)
    )
    (pin "1" (uuid e5d0b4fc-f03c-4de3-a3bf-10f60e2fe27f))
  )

  (symbol (lib_id "power:GND") (at 77.47 99.06 0) (unit 1)
    (in_bom yes) (on_board yes)
    (uuid 492792e7-e5a9-4d33-8d65-7a371b6539a5)
    (property "Reference" "#PWR03" (id 0) (at 77.47 105.41 0)
      (effects (font (size 1.27 1.27)) hide)
    )
    (property "Value" "GND" (id 1) (at 77.47 102.87 0))
    (property "Footprint" "" (id 2) (at 77.47 99.06 0)
      (effects (font (size 1.27 1.27)) hide)
    )
    (property "Datasheet" "" (id 3) (at 77.47 99.06 0)
      (effects (font (size 1.27 1.27)) hide)
    )
    (pin "1" (uuid 6d91ea70-bd1a-4528-817f-73b818595225))
  )

  (symbol (lib_id "power:+5V") (at 77.47 36.83 0) (mirror y) (unit 1)
    (in_bom yes) (on_board yes)
    (uuid 498a36cb-94f9-4061-b93e-8d8d00284c34)
    (property "Reference" "#PWR02" (id 0) (at 77.47 40.64 0)
      (effects (font (size 1.27 1.27)) hide)
    )
    (property "Value" "+5V" (id 1) (at 77.47 33.274 0))
    (property "Footprint" "" (id 2) (at 77.47 36.83 0)
      (effects (font (size 1.27 1.27)) hide)
    )
    (property "Datasheet" "" (id 3) (at 77.47 36.83 0)
      (effects (font (size 1.27 1.27)) hide)
    )
    (pin "1" (uuid ed48e227-3ead-42bc-9266-4f18499ca43a))
  )

  (symbol (lib_id "Mechanical:MountingHole") (at 257.81 140.97 0) (unit 1)
    (in_bom yes) (on_board yes)
    (uuid 5afafcc6-8b8c-4e66-ab13-380f3bbd2dd0)
    (property "Reference" "H3" (id 0) (at 257.81 135.89 0))
    (property "Value" "MountingHole" (id 1) (at 257.81 137.795 0))
    (property "Footprint" "MountingHole:MountingHole_2.2mm_M2_ISO7380" (id 2) (at 257.81 140.97 0)
      (effects (font (size 1.27 1.27)) hide)
    )
    (property "Datasheet" "~" (id 3) (at 257.81 140.97 0)
      (effects (font (size 1.27 1.27)) hide)
    )
  )

  (symbol (lib_id "power:GND") (at 133.35 189.23 0) (unit 1)
    (in_bom yes) (on_board yes)
    (uuid 5b5bdad2-fb38-4e4c-b99f-d21610778e77)
    (property "Reference" "#PWR015" (id 0) (at 133.35 195.58 0)
      (effects (font (size 1.27 1.27)) hide)
    )
    (property "Value" "GND" (id 1) (at 133.35 193.04 0))
    (property "Footprint" "" (id 2) (at 133.35 189.23 0)
      (effects (font (size 1.27 1.27)) hide)
    )
    (property "Datasheet" "" (id 3) (at 133.35 189.23 0)
      (effects (font (size 1.27 1.27)) hide)
    )
    (pin "1" (uuid ab083303-92ff-49b7-a4e6-98e3eefc21e9))
  )

  (symbol (lib_id "Device:C_Small") (at 46.99 185.42 0) (unit 1)
    (in_bom yes) (on_board yes)
    (uuid 70822034-23d3-4da9-9b07-d5b62e021862)
    (property "Reference" "C1" (id 0) (at 47.244 183.642 0)
      (effects (font (size 1.27 1.27)) (justify left))
    )
    (property "Value" "100nF" (id 1) (at 47.244 187.452 0)
      (effects (font (size 1.27 1.27)) (justify left))
    )
    (property "Footprint" "Capacitor_SMD:C_0805_2012Metric_Pad1.18x1.45mm_HandSolder" (id 2) (at 46.99 185.42 0)
      (effects (font (size 1.27 1.27)) hide)
    )
    (property "Datasheet" "~" (id 3) (at 46.99 185.42 0)
      (effects (font (size 1.27 1.27)) hide)
    )
    (pin "1" (uuid 7562f7e1-16b3-40f4-b2a5-b6544ff943ba))
    (pin "2" (uuid 7f6a576c-3c4e-4957-a021-6a5825518fb1))
  )

  (symbol (lib_id "Connector_Generic:Conn_01x02") (at 257.81 55.88 0) (unit 1)
    (in_bom yes) (on_board yes)
    (uuid 74526d65-d676-46fe-ae15-89abc62486b8)
    (property "Reference" "J3" (id 0) (at 257.81 53.34 0))
    (property "Value" "Lamp Out" (id 1) (at 257.81 60.96 0))
    (property "Footprint" "Connector_Wire:SolderWire-1.5sqmm_1x02_P6mm_D1.7mm_OD3mm" (id 2) (at 257.81 55.88 0)
      (effects (font (size 1.27 1.27)) hide)
    )
    (property "Datasheet" "~" (id 3) (at 257.81 55.88 0)
      (effects (font (size 1.27 1.27)) hide)
    )
    (pin "1" (uuid c4d5864d-755a-4da3-bed0-ab50f575c663))
    (pin "2" (uuid d074cc88-561c-46cb-914e-b01b3bcf999f))
  )

  (symbol (lib_id "power:GND") (at 44.45 187.96 0) (unit 1)
    (in_bom yes) (on_board yes)
    (uuid 7515043b-6ee4-486d-b233-1f5e79eab25f)
    (property "Reference" "#PWR012" (id 0) (at 44.45 194.31 0)
      (effects (font (size 1.27 1.27)) hide)
    )
    (property "Value" "GND" (id 1) (at 44.45 191.77 0))
    (property "Footprint" "" (id 2) (at 44.45 187.96 0)
      (effects (font (size 1.27 1.27)) hide)
    )
    (property "Datasheet" "" (id 3) (at 44.45 187.96 0)
      (effects (font (size 1.27 1.27)) hide)
    )
    (pin "1" (uuid 192c3aca-5547-4769-a836-21d2b7b7e364))
  )

  (symbol (lib_id "power:+5V") (at 77.47 153.67 0) (mirror y) (unit 1)
    (in_bom yes) (on_board yes)
    (uuid 841a1db8-bfc9-43a7-bd56-517f89c0e74a)
    (property "Reference" "#PWR09" (id 0) (at 77.47 157.48 0)
      (effects (font (size 1.27 1.27)) hide)
    )
    (property "Value" "+5V" (id 1) (at 77.47 150.114 0))
    (property "Footprint" "" (id 2) (at 77.47 153.67 0)
      (effects (font (size 1.27 1.27)) hide)
    )
    (property "Datasheet" "" (id 3) (at 77.47 153.67 0)
      (effects (font (size 1.27 1.27)) hide)
    )
    (pin "1" (uuid 647baafc-02e8-4eff-9163-a1a76ffa0888))
  )

  (symbol (lib_id "Device:LED") (at 133.35 177.8 90) (unit 1)
    (in_bom yes) (on_board yes)
    (uuid 977492d8-4cd0-4bdf-b19c-9158481bd50d)
    (property "Reference" "D9" (id 0) (at 130.81 177.8 0))
    (property "Value" "LED" (id 1) (at 135.89 177.8 0))
    (property "Footprint" "LED_THT:LED_D3.0mm" (id 2) (at 133.35 177.8 0)
      (effects (font (size 1.27 1.27)) hide)
    )
    (property "Datasheet" "~" (id 3) (at 133.35 177.8 0)
      (effects (font (size 1.27 1.27)) hide)
    )
    (pin "1" (uuid d611b2a6-9163-42e4-b26e-3740cd357a53))
    (pin "2" (uuid 10944a33-ed21-4f65-a957-c16bc32fa254))
  )

  (symbol (lib_id "power:+5V") (at 133.35 173.99 0) (mirror y) (unit 1)
    (in_bom yes) (on_board yes)
    (uuid ae0e2faf-d370-4cc4-b1d8-558f6790962b)
    (property "Reference" "#PWR014" (id 0) (at 133.35 177.8 0)
      (effects (font (size 1.27 1.27)) hide)
    )
    (property "Value" "+5V" (id 1) (at 133.35 170.434 0))
    (property "Footprint" "" (id 2) (at 133.35 173.99 0)
      (effects (font (size 1.27 1.27)) hide)
    )
    (property "Datasheet" "" (id 3) (at 133.35 173.99 0)
      (effects (font (size 1.27 1.27)) hide)
    )
    (pin "1" (uuid 3fa61482-43c8-4610-a6b4-d30336c1dea7))
  )

  (symbol (lib_id "Mechanical:MountingHole") (at 271.78 140.97 0) (unit 1)
    (in_bom yes) (on_board yes)
    (uuid b01983a1-55dc-40ee-8051-4d6fd599e9df)
    (property "Reference" "H4" (id 0) (at 271.78 135.89 0))
    (property "Value" "MountingHole" (id 1) (at 271.78 137.795 0))
    (property "Footprint" "MountingHole:MountingHole_2.2mm_M2_ISO7380" (id 2) (at 271.78 140.97 0)
      (effects (font (size 1.27 1.27)) hide)
    )
    (property "Datasheet" "~" (id 3) (at 271.78 140.97 0)
      (effects (font (size 1.27 1.27)) hide)
    )
  )

  (symbol (lib_id "Mechanical:MountingHole") (at 229.87 140.97 0) (unit 1)
    (in_bom yes) (on_board yes)
    (uuid b4a9ffbc-3e13-40bb-88dd-7459eec48352)
    (property "Reference" "H1" (id 0) (at 229.87 135.89 0))
    (property "Value" "MountingHole" (id 1) (at 229.87 137.795 0))
    (property "Footprint" "MountingHole:MountingHole_2.2mm_M2_ISO7380" (id 2) (at 229.87 140.97 0)
      (effects (font (size 1.27 1.27)) hide)
    )
    (property "Datasheet" "~" (id 3) (at 229.87 140.97 0)
      (effects (font (size 1.27 1.27)) hide)
    )
  )

  (symbol (lib_id "power:GND") (at 185.42 43.18 0) (unit 1)
    (in_bom yes) (on_board yes)
    (uuid bd48e6d8-1d8c-4561-bb85-e8e6c7b56c22)
    (property "Reference" "#PWR05" (id 0) (at 185.42 49.53 0)
      (effects (font (size 1.27 1.27)) hide)
    )
    (property "Value" "GND" (id 1) (at 185.42 46.99 0))
    (property "Footprint" "" (id 2) (at 185.42 43.18 0)
      (effects (font (size 1.27 1.27)) hide)
    )
    (property "Datasheet" "" (id 3) (at 185.42 43.18 0)
      (effects (font (size 1.27 1.27)) hide)
    )
    (pin "1" (uuid c2cd4f41-5d04-4126-aeb6-1d9c3b2a3727))
  )

  (symbol (lib_id "power:GND") (at 236.22 33.02 0) (unit 1)
    (in_bom yes) (on_board yes)
    (uuid c86252e8-9f0b-429b-8d4b-bc34c70007a0)
    (property "Reference" "#PWR018" (id 0) (at 236.22 39.37 0)
      (effects (font (size 1.27 1.27)) hide)
    )
    (property "Value" "GND" (id 1) (at 236.22 36.83 0))
    (property "Footprint" "" (id 2) (at 236.22 33.02 0)
      (effects (font (size 1.27 1.27)) hide)
    )
    (property "Datasheet" "" (id 3) (at 236.22 33.02 0)
      (effects (font (size 1.27 1.27)) hide)
    )
    (pin "1" (uuid 1d49fbaf-5ffe-4be9-81d6-878449d1dfb2))
  )

  (symbol (lib_id "Wizzard.Atmel:AtMega3208-XF-Functional") (at 82.55 68.58 0) (unit 1)
    (in_bom yes) (on_board yes)
    (uuid d6514436-6a26-45fc-9c4f-8eb06d441ffd)
    (property "Reference" "U1" (id 0) (at 72.39 41.91 0)
      (effects (font (size 1.27 1.27)) (justify left bottom))
    )
    (property "Value" "AtMega3208-XF-Functional" (id 1) (at 85.09 95.25 0)
      (effects (font (size 1.27 1.27)) (justify left top))
    )
    (property "Footprint" "Wizzard.Atmel:AtMega3208_28pin-AtMega3208-XF-SSOP28" (id 2) (at 82.55 68.58 0)
      (effects (font (size 1.27 1.27) italic) hide)
    )
    (property "Datasheet" "http://ww1.microchip.com/downloads/en/DeviceDoc/ATmega3208-3209-Data-Sheet-DS40002174A.pdf" (id 3) (at 82.55 68.58 0)
      (effects (font (size 1.27 1.27)) hide)
    )
    (property "Generator" "Chipper, generic Symbol" (id 4) (at 82.55 68.58 0)
      (effects (font (size 1.27 1.27)) hide)
    )
    (property "Author" "Konrad Rosenbaum" (id 5) (at 82.55 68.58 0)
      (effects (font (size 1.27 1.27)) hide)
    )
    (property "ChipFileCopyright" "(c) Konrad Rosenbaum, 2021" (id 6) (at 82.55 68.58 0)
      (effects (font (size 1.27 1.27)) hide)
    )
    (property "ChipFileLicense" "CC-BY-SA + KiCAD Exception" (id 7) (at 82.55 68.58 0)
      (effects (font (size 1.27 1.27)) hide)
    )
    (pin "1" (uuid 271be9b0-af96-4f1a-a296-c6b4d63f1cf9))
    (pin "10" (uuid a78f4d1f-bd57-4f8f-bc7a-61fef321188c))
    (pin "11" (uuid 7ddcdffc-ca8b-4244-a5b4-083b22017286))
    (pin "12" (uuid eee3a313-7131-42dc-b076-e9bb00f167ac))
    (pin "13" (uuid 4669b49f-7c3c-4908-b6b9-20ce91025b3c))
    (pin "14" (uuid f0c14e75-463f-4059-b1fb-0d779983992c))
    (pin "15" (uuid ee4e5cae-2a3d-462d-b462-2208df268c60))
    (pin "16" (uuid 3ee21700-8d97-41d2-b3fc-d0a465edb58e))
    (pin "17" (uuid 483b9fd9-fbba-495f-9c29-9b7c7a67fb81))
    (pin "18" (uuid 55b71368-4710-4c6d-bdd2-4561b15b3601))
    (pin "19" (uuid 15a8e70d-9d8a-4c69-858d-2a1c4ce33426))
    (pin "2" (uuid b06bb64f-c929-40c1-ba44-21478cd51809) (alternate "TCA0-WO0"))
    (pin "20" (uuid 96b04224-89ae-4a7b-83db-82b2a443c56a))
    (pin "21" (uuid 5515665b-1c71-4f68-9c4b-9e39afba2f58))
    (pin "22" (uuid 8460e09e-9734-4a71-9068-a504ebada188))
    (pin "23" (uuid 5f40072c-e5bd-475f-afb9-e7e5f8043618))
    (pin "24" (uuid dd31e369-a07a-4512-8dd4-dbfdca812aa7))
    (pin "25" (uuid 4b70ca43-3117-4036-a232-9719093846c5))
    (pin "26" (uuid 3499a521-eb2a-4a6a-9dcf-a378f424c67e))
    (pin "27" (uuid d75cc5f1-ee88-4c0e-8777-3c6a8849725a))
    (pin "28" (uuid 8b349b81-1fe8-4547-b869-c999eefc5c64))
    (pin "3" (uuid 0c9b9a90-4528-4380-9369-2977e9deafbd) (alternate "TCA0-WO1"))
    (pin "4" (uuid 202f6dd4-f688-4d11-a0bf-e90572838698) (alternate "TCA0-WO2"))
    (pin "5" (uuid e6f93376-9fdf-4bfb-9d34-9e37b6d7de64) (alternate "TCA0-WO3"))
    (pin "6" (uuid f84f62de-33c4-41c4-9f16-8fc2818c549a))
    (pin "7" (uuid 117bff77-29fa-4c63-aa95-97c393338e91))
    (pin "8" (uuid 8fe24c72-ef6f-4ca4-89f6-6d0764d25087))
    (pin "9" (uuid 5ab14d65-7dfc-4593-8a47-7baf4696110e))
  )

  (symbol (lib_id "Device:R") (at 173.99 38.1 90) (unit 1)
    (in_bom yes) (on_board yes)
    (uuid df4b51f4-4c01-4479-8c2d-dda2cdef9e9e)
    (property "Reference" "R1" (id 0) (at 173.99 36.068 90))
    (property "Value" "1kΩ" (id 1) (at 173.99 38.1 90))
    (property "Footprint" "Resistor_SMD:R_0603_1608Metric_Pad0.98x0.95mm_HandSolder" (id 2) (at 173.99 39.878 90)
      (effects (font (size 1.27 1.27)) hide)
    )
    (property "Datasheet" "~" (id 3) (at 173.99 38.1 0)
      (effects (font (size 1.27 1.27)) hide)
    )
    (pin "1" (uuid 728b3883-0f52-4bcb-a5ab-4692c012fdd9))
    (pin "2" (uuid f4126200-c054-4bc6-afcd-af4e38527d45))
  )

  (symbol (lib_id "Mechanical:MountingHole") (at 243.84 140.97 0) (unit 1)
    (in_bom yes) (on_board yes)
    (uuid e251652c-0af3-4098-a2c9-35ea6ffc4337)
    (property "Reference" "H2" (id 0) (at 243.84 135.89 0))
    (property "Value" "MountingHole" (id 1) (at 243.84 137.795 0))
    (property "Footprint" "MountingHole:MountingHole_2.2mm_M2_ISO7380" (id 2) (at 243.84 140.97 0)
      (effects (font (size 1.27 1.27)) hide)
    )
    (property "Datasheet" "~" (id 3) (at 243.84 140.97 0)
      (effects (font (size 1.27 1.27)) hide)
    )
  )

  (symbol (lib_id "power:PWR_FLAG") (at 36.83 182.88 0) (unit 1)
    (in_bom yes) (on_board yes)
    (uuid e57fdf4f-da3a-4f5f-bdd2-949615fbea2a)
    (property "Reference" "#FLG01" (id 0) (at 36.83 180.975 0)
      (effects (font (size 1.27 1.27)) hide)
    )
    (property "Value" "PWR_FLAG" (id 1) (at 36.83 179.07 0))
    (property "Footprint" "" (id 2) (at 36.83 182.88 0)
      (effects (font (size 1.27 1.27)) hide)
    )
    (property "Datasheet" "~" (id 3) (at 36.83 182.88 0)
      (effects (font (size 1.27 1.27)) hide)
    )
    (pin "1" (uuid 3d5a974a-68a8-4b6b-aa69-d90a827dbb54))
  )

  (symbol (lib_id "Connector:Conn_01x02_Male") (at 31.75 184.15 0) (unit 1)
    (in_bom yes) (on_board yes)
    (uuid f008d160-6588-4d94-aded-a3cd631dd160)
    (property "Reference" "J2" (id 0) (at 31.75 181.61 0))
    (property "Value" "USB_Power" (id 1) (at 29.21 187.96 0))
    (property "Footprint" "Connector_Wire:SolderWire-1.5sqmm_1x02_P6mm_D1.7mm_OD3mm" (id 2) (at 31.75 184.15 0)
      (effects (font (size 1.27 1.27)) hide)
    )
    (property "Datasheet" "~" (id 3) (at 31.75 184.15 0)
      (effects (font (size 1.27 1.27)) hide)
    )
    (pin "1" (uuid 7317d372-cc09-43b6-af1d-e0fbdfd9b47c))
    (pin "2" (uuid 99550734-3b39-41a1-9fde-00a65877d659))
  )

  (symbol (lib_id "Device:R") (at 248.92 33.02 90) (unit 1)
    (in_bom yes) (on_board yes)
    (uuid f79c9fcc-00f7-452d-94ed-a3add51c4524)
    (property "Reference" "R2" (id 0) (at 248.92 30.988 90))
    (property "Value" "1kΩ" (id 1) (at 248.92 33.02 90))
    (property "Footprint" "Resistor_SMD:R_0603_1608Metric_Pad0.98x0.95mm_HandSolder" (id 2) (at 248.92 34.798 90)
      (effects (font (size 1.27 1.27)) hide)
    )
    (property "Datasheet" "~" (id 3) (at 248.92 33.02 0)
      (effects (font (size 1.27 1.27)) hide)
    )
    (pin "1" (uuid 2d6cf3a1-9f74-4739-93c9-1d3a57b0c438))
    (pin "2" (uuid 6d2e5134-fc2d-4ab9-b186-cb89aab0723d))
  )

  (symbol (lib_id "Device:RotaryEncoder_Switch") (at 256.54 157.48 0) (unit 1)
    (in_bom yes) (on_board yes)
    (uuid fa8a7971-9e6c-45b8-b406-83266d2e6c0c)
    (property "Reference" "SW1" (id 0) (at 256.54 150.876 0))
    (property "Value" "RotaryEncoder_Switch" (id 1) (at 256.54 164.084 0))
    (property "Footprint" "Rotary_Encoder:RotaryEncoder_Alps_EC11E-Switch_Vertical_H20mm_CircularMountingHoles" (id 2) (at 252.73 153.416 0)
      (effects (font (size 1.27 1.27)) hide)
    )
    (property "Datasheet" "~" (id 3) (at 256.54 150.876 0)
      (effects (font (size 1.27 1.27)) hide)
    )
    (pin "A" (uuid 62d3b854-0be8-4247-b73e-f02f8f602405))
    (pin "B" (uuid 582edf07-5661-48d0-a73b-102416d9ec7f))
    (pin "C" (uuid a9036170-8b7a-48bd-8b97-f01625cb61fa))
    (pin "S1" (uuid ed5709ff-fbfb-4f1d-9391-66c11b4a7e43))
    (pin "S2" (uuid dbd97a6b-4a05-4fdc-82ec-20a175c4db7d))
  )

  (sheet_instances
    (path "/" (page "1"))
  )

  (symbol_instances
    (path "/e57fdf4f-da3a-4f5f-bdd2-949615fbea2a"
      (reference "#FLG01") (unit 1) (value "PWR_FLAG") (footprint "")
    )
    (path "/0af4d798-71a9-43b8-a8b6-7bc0b0a8aae7"
      (reference "#FLG02") (unit 1) (value "PWR_FLAG") (footprint "")
    )
    (path "/2c72ac4c-84c3-4eff-875f-732613cafd88"
      (reference "#PWR01") (unit 1) (value "GND") (footprint "")
    )
    (path "/498a36cb-94f9-4061-b93e-8d8d00284c34"
      (reference "#PWR02") (unit 1) (value "+5V") (footprint "")
    )
    (path "/492792e7-e5a9-4d33-8d65-7a371b6539a5"
      (reference "#PWR03") (unit 1) (value "GND") (footprint "")
    )
    (path "/29b86736-0448-414a-9f1c-2a79266d4f2a"
      (reference "#PWR04") (unit 1) (value "GND") (footprint "")
    )
    (path "/bd48e6d8-1d8c-4561-bb85-e8e6c7b56c22"
      (reference "#PWR05") (unit 1) (value "GND") (footprint "")
    )
    (path "/841a1db8-bfc9-43a7-bd56-517f89c0e74a"
      (reference "#PWR09") (unit 1) (value "+5V") (footprint "")
    )
    (path "/41a0c418-76ed-4b09-9a6b-d8a9a0970001"
      (reference "#PWR010") (unit 1) (value "GND") (footprint "")
    )
    (path "/167228d6-e33b-4427-91b1-14645f6d30d6"
      (reference "#PWR011") (unit 1) (value "+5V") (footprint "")
    )
    (path "/7515043b-6ee4-486d-b233-1f5e79eab25f"
      (reference "#PWR012") (unit 1) (value "GND") (footprint "")
    )
    (path "/ae0e2faf-d370-4cc4-b1d8-558f6790962b"
      (reference "#PWR014") (unit 1) (value "+5V") (footprint "")
    )
    (path "/5b5bdad2-fb38-4e4c-b99f-d21610778e77"
      (reference "#PWR015") (unit 1) (value "GND") (footprint "")
    )
    (path "/c86252e8-9f0b-429b-8d4b-bc34c70007a0"
      (reference "#PWR018") (unit 1) (value "GND") (footprint "")
    )
    (path "/0e7df0b5-3fa9-4553-b8c8-f9b9084f29f2"
      (reference "#PWR022") (unit 1) (value "+5V") (footprint "")
    )
    (path "/70822034-23d3-4da9-9b07-d5b62e021862"
      (reference "C1") (unit 1) (value "100nF") (footprint "Capacitor_SMD:C_0805_2012Metric_Pad1.18x1.45mm_HandSolder")
    )
    (path "/3e72ada8-8ce3-4b7c-a246-8cd503a37952"
      (reference "C2") (unit 1) (value "47µF") (footprint "Capacitor_SMD:CP_Elec_6.3x5.4")
    )
    (path "/33cefcd2-17fd-460c-9af7-b187946bb5af"
      (reference "D4") (unit 1) (value "6V") (footprint "Diode_THT:D_DO-41_SOD81_P10.16mm_Horizontal")
    )
    (path "/977492d8-4cd0-4bdf-b19c-9158481bd50d"
      (reference "D9") (unit 1) (value "LED") (footprint "LED_THT:LED_D3.0mm")
    )
    (path "/1be804aa-31f2-4ea6-a89a-e2ea7086b74a"
      (reference "D11") (unit 1) (value "1N4001") (footprint "Diode_THT:D_DO-41_SOD81_P10.16mm_Horizontal")
    )
    (path "/b4a9ffbc-3e13-40bb-88dd-7459eec48352"
      (reference "H1") (unit 1) (value "MountingHole") (footprint "MountingHole:MountingHole_2.2mm_M2_ISO7380")
    )
    (path "/e251652c-0af3-4098-a2c9-35ea6ffc4337"
      (reference "H2") (unit 1) (value "MountingHole") (footprint "MountingHole:MountingHole_2.2mm_M2_ISO7380")
    )
    (path "/5afafcc6-8b8c-4e66-ab13-380f3bbd2dd0"
      (reference "H3") (unit 1) (value "MountingHole") (footprint "MountingHole:MountingHole_2.2mm_M2_ISO7380")
    )
    (path "/b01983a1-55dc-40ee-8051-4d6fd599e9df"
      (reference "H4") (unit 1) (value "MountingHole") (footprint "MountingHole:MountingHole_2.2mm_M2_ISO7380")
    )
    (path "/2888dfdc-a31e-4bca-bd6d-16d12893749c"
      (reference "J1") (unit 1) (value "Prog") (footprint "Connector_PinHeader_2.54mm:PinHeader_1x03_P2.54mm_Vertical")
    )
    (path "/f008d160-6588-4d94-aded-a3cd631dd160"
      (reference "J2") (unit 1) (value "USB_Power") (footprint "Connector_Wire:SolderWire-1.5sqmm_1x02_P6mm_D1.7mm_OD3mm")
    )
    (path "/74526d65-d676-46fe-ae15-89abc62486b8"
      (reference "J3") (unit 1) (value "Lamp Out") (footprint "Connector_Wire:SolderWire-1.5sqmm_1x02_P6mm_D1.7mm_OD3mm")
    )
    (path "/1a7017c6-e91e-459c-95d5-85b95972f210"
      (reference "Q1") (unit 1) (value "STP40NF03L") (footprint "Package_TO_SOT_THT:TO-220-3_Vertical")
    )
    (path "/df4b51f4-4c01-4479-8c2d-dda2cdef9e9e"
      (reference "R1") (unit 1) (value "1kΩ") (footprint "Resistor_SMD:R_0603_1608Metric_Pad0.98x0.95mm_HandSolder")
    )
    (path "/f79c9fcc-00f7-452d-94ed-a3add51c4524"
      (reference "R2") (unit 1) (value "1kΩ") (footprint "Resistor_SMD:R_0603_1608Metric_Pad0.98x0.95mm_HandSolder")
    )
    (path "/3a58f83e-80fc-4ade-98ac-21e310777af6"
      (reference "R11") (unit 1) (value "1kΩ") (footprint "Resistor_SMD:R_0603_1608Metric_Pad0.98x0.95mm_HandSolder")
    )
    (path "/fa8a7971-9e6c-45b8-b406-83266d2e6c0c"
      (reference "SW1") (unit 1) (value "RotaryEncoder_Switch") (footprint "Rotary_Encoder:RotaryEncoder_Alps_EC11E-Switch_Vertical_H20mm_CircularMountingHoles")
    )
    (path "/d6514436-6a26-45fc-9c4f-8eb06d441ffd"
      (reference "U1") (unit 1) (value "AtMega3208-XF-Functional") (footprint "Wizzard.Atmel:AtMega3208_28pin-AtMega3208-XF-SSOP28")
    )
  )
)
